<?xml version="1.0" encoding="UTF-8" standalone="no"?>
<!-- Created with Inkscape (http://www.inkscape.org/) -->

<svg
   width="1280"
   height="720"
   viewBox="0 0 1280.0001 720.00001"
   version="1.1"
   id="svg5"
   sodipodi:docname="ADL-ASL-ALF-equilibre-desequilibre-chomage.svg"
   inkscape:version="1.3.2 (091e20ef0f, 2023-11-25)"
   xmlns:inkscape="http://www.inkscape.org/namespaces/inkscape"
   xmlns:sodipodi="http://sodipodi.sourceforge.net/DTD/sodipodi-0.dtd"
   xmlns="http://www.w3.org/2000/svg"
   xmlns:svg="http://www.w3.org/2000/svg"
   xmlns:rdf="http://www.w3.org/1999/02/22-rdf-syntax-ns#"
   xmlns:cc="http://creativecommons.org/ns#">
  <sodipodi:namedview
     id="namedview7"
     pagecolor="#ffffff"
     bordercolor="#666666"
     borderopacity="1.0"
     inkscape:pageshadow="2"
     inkscape:pageopacity="0.0"
     inkscape:pagecheckerboard="false"
     inkscape:document-units="px"
     showgrid="true"
     units="px"
     inkscape:zoom="1.0112295"
     inkscape:cx="597.2927"
     inkscape:cy="382.208"
     inkscape:window-width="1920"
     inkscape:window-height="1003"
     inkscape:window-x="0"
     inkscape:window-y="0"
     inkscape:window-maximized="1"
     inkscape:current-layer="layer1"
     inkscape:showpageshadow="2"
     inkscape:deskcolor="#d1d1d1"
     borderlayer="true">
    <inkscape:grid
       type="xygrid"
       id="grid507"
       dotted="true"
       color="#0099e5"
       opacity="0.10196078"
       empcolor="#0099e5"
       empopacity="0.10196078"
       empspacing="1"
       originx="0"
       originy="0"
       spacingx="8.0000004"
       spacingy="8.0000004"
       snapvisiblegridlinesonly="true"
       visible="true"
       units="px" />
  </sodipodi:namedview>
  <defs
     id="defs2">
    <inkscape:path-effect
       effect="bspline"
       id="path-effect9"
       is_visible="true"
       lpeversion="1.3"
       weight="33.333333"
       steps="2"
       helper_size="0"
       apply_no_weight="true"
       apply_with_weight="true"
       only_selected="false"
       uniform="false" />
    <linearGradient
       id="swatch3"
       inkscape:swatch="solid">
      <stop
         style="stop-color:#000000;stop-opacity:1;"
         offset="0"
         id="stop3" />
    </linearGradient>
    <inkscape:path-effect
       effect="bspline"
       id="path-effect3"
       is_visible="true"
       lpeversion="1.3"
       weight="33.333333"
       steps="2"
       helper_size="0"
       apply_no_weight="true"
       apply_with_weight="true"
       only_selected="false"
       uniform="false" />
    <inkscape:path-effect
       effect="bspline"
       id="path-effect8"
       is_visible="true"
       lpeversion="1.3"
       weight="33.333333"
       steps="2"
       helper_size="0"
       apply_no_weight="true"
       apply_with_weight="true"
       only_selected="false"
       uniform="false" />
    <inkscape:path-effect
       effect="bspline"
       id="path-effect7"
       is_visible="true"
       lpeversion="1.3"
       weight="33.333333"
       steps="2"
       helper_size="0"
       apply_no_weight="true"
       apply_with_weight="true"
       only_selected="false"
       uniform="false" />
    <inkscape:path-effect
       effect="bspline"
       id="path-effect2"
       is_visible="true"
       lpeversion="1.3"
       weight="33.333333"
       steps="2"
       helper_size="0"
       apply_no_weight="true"
       apply_with_weight="true"
       only_selected="false"
       uniform="false" />
    <inkscape:path-effect
       effect="bspline"
       id="path-effect1"
       is_visible="true"
       lpeversion="1.3"
       weight="33.333333"
       steps="2"
       helper_size="0"
       apply_no_weight="true"
       apply_with_weight="true"
       only_selected="false"
       uniform="false" />
    <marker
       style="overflow:visible"
       id="DartArrow"
       refX="0"
       refY="0"
       orient="auto-start-reverse"
       inkscape:stockid="Dart arrow"
       markerWidth="1"
       markerHeight="1"
       viewBox="0 0 1 1"
       inkscape:isstock="true"
       inkscape:collect="always"
       preserveAspectRatio="xMidYMid">
      <path
         style="fill:context-stroke;fill-rule:evenodd;stroke:none"
         d="M 0,0 5,-5 -12.5,0 5,5 Z"
         transform="scale(-0.5)"
         id="path6" />
    </marker>
    <marker
       style="overflow:visible"
       id="marker4"
       refX="0"
       refY="0"
       orient="auto-start-reverse"
       inkscape:stockid="Dart arrow"
       markerWidth="1"
       markerHeight="1"
       viewBox="0 0 1 1"
       inkscape:isstock="true"
       inkscape:collect="always"
       preserveAspectRatio="xMidYMid">
      <path
         style="fill:context-stroke;fill-rule:evenodd;stroke:none"
         d="M 0,0 5,-5 -12.5,0 5,5 Z"
         transform="scale(-0.5)"
         id="path4" />
    </marker>
    <inkscape:path-effect
       effect="bspline"
       id="path-effect3-2"
       is_visible="true"
       lpeversion="1.3"
       weight="33.333333"
       steps="2"
       helper_size="0"
       apply_no_weight="true"
       apply_with_weight="true"
       only_selected="false"
       uniform="false" />
    <inkscape:path-effect
       effect="bspline"
       id="path-effect7-5"
       is_visible="true"
       lpeversion="1.3"
       weight="33.333333"
       steps="2"
       helper_size="0"
       apply_no_weight="true"
       apply_with_weight="true"
       only_selected="false"
       uniform="false" />
    <inkscape:path-effect
       effect="bspline"
       id="path-effect7-6"
       is_visible="true"
       lpeversion="1.3"
       weight="33.333333"
       steps="2"
       helper_size="0"
       apply_no_weight="true"
       apply_with_weight="true"
       only_selected="false"
       uniform="false" />
    <inkscape:path-effect
       effect="bspline"
       id="path-effect7-6-9"
       is_visible="true"
       lpeversion="1.3"
       weight="33.333333"
       steps="2"
       helper_size="0"
       apply_no_weight="true"
       apply_with_weight="true"
       only_selected="false"
       uniform="false" />
  </defs>
  <g
     inkscape:label="Template"
     inkscape:groupmode="layer"
     id="layer1">
    <text
       xml:space="preserve"
       style="font-style:normal;font-variant:normal;font-weight:normal;font-stretch:normal;font-size:26.6667px;line-height:1;font-family:sans-serif;-inkscape-font-specification:'sans-serif, Normal';font-variant-ligatures:normal;font-variant-caps:normal;font-variant-numeric:normal;font-variant-east-asian:normal;text-align:center;letter-spacing:0px;word-spacing:0px;text-anchor:middle"
       x="153.85411"
       y="130.54715"
       id="text478-6"
       inkscape:label="ClassName"><tspan
         id="tspan476-1"
         x="153.85411"
         y="130.54715"
         style="font-weight:bold;font-size:26.6667px;text-align:center;baseline-shift:baseline;text-anchor:middle;fill:#000000;fill-opacity:1"
         sodipodi:role="line">taux de salaire réel</tspan></text>
    <text
       xml:space="preserve"
       style="font-style:normal;font-variant:normal;font-weight:normal;font-stretch:normal;font-size:26.6667px;line-height:1;font-family:sans-serif;-inkscape-font-specification:'sans-serif, Normal';font-variant-ligatures:normal;font-variant-caps:normal;font-variant-numeric:normal;font-variant-east-asian:normal;text-align:center;letter-spacing:0px;word-spacing:0px;text-anchor:middle"
       x="260.03915"
       y="324.26044"
       id="text478-6-5"
       inkscape:label="ClassName"><tspan
         id="tspan476-1-3"
         x="260.03915"
         y="324.26044"
         style="font-weight:bold;font-size:26.6667px;text-align:center;baseline-shift:baseline;text-anchor:middle;fill:#000000;fill-opacity:1"
         sodipodi:role="line">W</tspan></text>
    <text
       xml:space="preserve"
       style="font-style:normal;font-variant:normal;font-weight:normal;font-stretch:normal;font-size:26.6667px;line-height:1;font-family:sans-serif;-inkscape-font-specification:'sans-serif, Normal';font-variant-ligatures:normal;font-variant-caps:normal;font-variant-numeric:normal;font-variant-east-asian:normal;text-align:center;letter-spacing:0px;word-spacing:0px;text-anchor:middle"
       x="739.44897"
       y="636.74054"
       id="text478-6-5-7"
       inkscape:label="ClassName"><tspan
         id="tspan476-1-3-5"
         x="739.44897"
         y="636.74054"
         style="font-weight:bold;font-size:26.6667px;text-align:center;baseline-shift:baseline;text-anchor:middle;fill:#000000;fill-opacity:1"
         sodipodi:role="line">Y</tspan></text>
    <text
       xml:space="preserve"
       style="font-style:normal;font-variant:normal;font-weight:normal;font-stretch:normal;font-size:26.6667px;line-height:1;font-family:sans-serif;-inkscape-font-specification:'sans-serif, Normal';font-variant-ligatures:normal;font-variant-caps:normal;font-variant-numeric:normal;font-variant-east-asian:normal;text-align:center;letter-spacing:0px;word-spacing:0px;text-anchor:middle"
       x="458.32001"
       y="640.04004"
       id="text478-6-5-7-7"
       inkscape:label="ClassName"><tspan
         id="tspan476-1-3-5-4"
         x="458.32001"
         y="640.04004"
         style="font-weight:bold;font-size:26.6667px;text-align:center;baseline-shift:baseline;text-anchor:middle;fill:#000000;fill-opacity:1"
         sodipodi:role="line">X</tspan></text>
    <text
       xml:space="preserve"
       style="font-style:normal;font-variant:normal;font-weight:normal;font-stretch:normal;font-size:26.6667px;line-height:1;font-family:sans-serif;-inkscape-font-specification:'sans-serif, Normal';font-variant-ligatures:normal;font-variant-caps:normal;font-variant-numeric:normal;font-variant-east-asian:normal;text-align:center;letter-spacing:0px;word-spacing:0px;text-anchor:middle"
       x="807.32001"
       y="635.04004"
       id="text478-6-5-7-4"
       inkscape:label="ClassName"><tspan
         id="tspan476-1-3-5-7"
         x="807.32001"
         y="635.04004"
         style="font-weight:bold;font-size:26.6667px;text-align:center;baseline-shift:baseline;text-anchor:middle;fill:#000000;fill-opacity:1"
         sodipodi:role="line">Z</tspan></text>
    <text
       xml:space="preserve"
       style="font-style:normal;font-variant:normal;font-weight:normal;font-stretch:normal;font-size:26.6667px;line-height:1;font-family:sans-serif;-inkscape-font-specification:'sans-serif, Normal';font-variant-ligatures:normal;font-variant-caps:normal;font-variant-numeric:normal;font-variant-east-asian:normal;text-align:center;letter-spacing:0px;word-spacing:0px;text-anchor:middle;fill:#ff0000"
       x="775.65527"
       y="149.6093"
       id="text478-6-9"
       inkscape:label="ClassName"><tspan
         id="tspan476-1-5"
         x="775.65527"
         y="149.6093"
         style="font-weight:bold;font-size:26.6667px;text-align:center;baseline-shift:baseline;text-anchor:middle;fill:#ff0000;fill-opacity:1"
         sodipodi:role="line">ASL</tspan></text>
    <text
       xml:space="preserve"
       style="font-style:normal;font-variant:normal;font-weight:normal;font-stretch:normal;font-size:26.6667px;line-height:1;font-family:sans-serif;-inkscape-font-specification:'sans-serif, Normal';font-variant-ligatures:normal;font-variant-caps:normal;font-variant-numeric:normal;font-variant-east-asian:normal;text-align:center;letter-spacing:0px;word-spacing:0px;text-anchor:middle;fill:#ff0000"
       x="881.08008"
       y="189.30669"
       id="text478-6-9-6"
       inkscape:label="ClassName"><tspan
         id="tspan476-1-5-1"
         x="881.08008"
         y="189.30669"
         style="font-weight:bold;font-size:26.6667px;text-align:center;baseline-shift:baseline;text-anchor:middle;fill:#ff0000;fill-opacity:1"
         sodipodi:role="line">ALF</tspan></text>
    <text
       xml:space="preserve"
       style="font-style:normal;font-variant:normal;font-weight:normal;font-stretch:normal;font-size:26.6667px;line-height:1;font-family:sans-serif;-inkscape-font-specification:'sans-serif, Normal';font-variant-ligatures:normal;font-variant-caps:normal;font-variant-numeric:normal;font-variant-east-asian:normal;text-align:center;letter-spacing:0px;word-spacing:0px;text-anchor:middle;fill:#0000ff"
       x="912.27606"
       y="506.73962"
       id="text478-6-9-3"
       inkscape:label="ClassName"><tspan
         id="tspan476-1-5-7"
         x="912.27606"
         y="506.73962"
         style="font-weight:bold;font-size:26.6667px;text-align:center;baseline-shift:baseline;text-anchor:middle;fill:#0000ff;fill-opacity:1"
         sodipodi:role="line">ADL</tspan></text>
    <text
       xml:space="preserve"
       style="font-style:normal;font-variant:normal;font-weight:normal;font-stretch:normal;font-size:26.6667px;line-height:1;font-family:sans-serif;-inkscape-font-specification:'sans-serif, Normal';font-variant-ligatures:normal;font-variant-caps:normal;font-variant-numeric:normal;font-variant-east-asian:normal;text-align:center;letter-spacing:0px;word-spacing:0px;text-anchor:middle"
       x="1017.3606"
       y="641.0752"
       id="text478-6-6"
       inkscape:label="ClassName"><tspan
         id="tspan476-1-7"
         x="1017.3606"
         y="641.0752"
         style="font-weight:bold;font-size:26.6667px;text-align:center;baseline-shift:baseline;text-anchor:middle;fill:#000000;fill-opacity:1"
         sodipodi:role="line">nombre de travailleurs</tspan></text>
    <path
       style="fill:none;fill-opacity:0;stroke:#010101;stroke-width:4;stroke-miterlimit:0;stroke-dasharray:none;stroke-opacity:1;marker-end:url(#marker4)"
       d="m 299.67476,588.47332 709.38364,0.95748"
       id="path3" />
    <path
       style="fill:none;fill-opacity:0;stroke:#010101;stroke-width:4;stroke-miterlimit:0;stroke-dasharray:none;stroke-opacity:1;marker-end:url(#DartArrow)"
       d="M 298.05065,590.28824 V 129.68718"
       id="path5" />
    <path
       style="opacity:1;fill:#0000ff;stroke:#000000;stroke-width:3.10048642;stroke-linejoin:round;stroke-miterlimit:0;stroke-dasharray:3.10048642,9.30145925;stroke-dashoffset:0;stroke-opacity:1"
       d="m 645.21318,424.0598 c 0,53.76776 0,107.53553 0,161.30329"
       id="path7"
       inkscape:path-effect="#path-effect7"
       inkscape:original-d="m 645.21318,424.0598 c 0,53.76776 0,107.53553 0,161.30329"
       transform="matrix(-1,0,0,1.66441,1103.0985,-388.92109)" />
    <path
       style="fill:#0000ff;stroke:#000000;stroke-width:3.10049;stroke-linejoin:round;stroke-miterlimit:0;stroke-dasharray:3.10049, 9.30146;stroke-dashoffset:0;stroke-opacity:1"
       d="m 645.21318,424.0598 c 0,53.76776 0,107.53553 0,161.30329"
       id="path7-56"
       inkscape:path-effect="#path-effect7-6"
       inkscape:original-d="m 645.21318,424.0598 c 0,53.76776 0,107.53553 0,161.30329"
       transform="matrix(-1,0,0,1.66441,1383.7634,-389.80937)" />
    <path
       style="fill:#0000ff;stroke:#000000;stroke-width:3.10049;stroke-linejoin:round;stroke-miterlimit:0;stroke-dasharray:3.10049, 9.30146;stroke-dashoffset:0;stroke-opacity:1"
       d="m 645.21318,424.0598 c 0,53.76776 0,107.53553 0,161.30329"
       id="path7-56-3"
       inkscape:path-effect="#path-effect7-6-9"
       inkscape:original-d="m 645.21318,424.0598 c 0,53.76776 0,107.53553 0,161.30329"
       transform="matrix(-1,0,0,1.66441,1451.7634,-385.80937)" />
    <path
       style="opacity:1;fill:#0000ff;stroke:#000000;stroke-width:3.25500273;stroke-linejoin:round;stroke-miterlimit:0;stroke-dasharray:3.25500273,9.76499841;stroke-dashoffset:0;stroke-opacity:1"
       d="m 636.89806,418.58821 c -112.48217,0 -224.96433,0 -337.4465,0"
       id="path8"
       inkscape:path-effect="#path-effect8"
       inkscape:original-d="m 636.89806,418.58821 c -112.48217,0 -224.96433,0 -337.4465,0"
       transform="matrix(1.5101402,0,0,1,-152.76227,-103.50555)" />
    <path
       style="fill:none;stroke:#ff0000;stroke-width:5;stroke-linejoin:round;stroke-miterlimit:0;stroke-dasharray:none;stroke-opacity:1"
       d="m 310.6465,531.18181 c 59.67891,-11.06629 119.35782,-22.13258 168.56366,-35.96561 49.20585,-13.83302 87.93708,-30.43212 114.02203,-43.07939 26.08496,-12.64727 39.52233,-21.34204 57.11004,-36.36079 17.58771,-15.01874 39.32462,-36.36044 56.71464,-56.7147 17.39001,-20.35426 30.43216,-39.71988 41.30092,-58.88846 10.86876,-19.16858 19.56353,-38.13898 26.48001,-54.93617 6.91648,-16.79719 12.0543,-31.4202 16.00657,-46.04365 3.95227,-14.62346 6.71879,-29.24648 9.48536,-43.86979"
       id="path1"
       inkscape:path-effect="#path-effect3"
       inkscape:original-d="m 310.6465,531.18181 c 59.67891,-11.06629 119.35782,-22.13258 179.03673,-33.19887 38.73278,-16.59976 77.46401,-33.19886 116.19602,-49.79829 13.4379,-8.69511 26.87527,-17.38988 40.3129,-26.08482 21.73779,-21.34255 43.4747,-42.68425 65.21206,-64.02638 13.04267,-19.36639 26.08482,-38.73201 39.12723,-58.09801 8.69511,-18.97116 17.38988,-37.94156 26.08482,-56.91234 5.13802,-14.6236 10.27584,-29.24661 15.41376,-43.86992 2.76662,-14.6236 5.53314,-29.24662 8.29971,-43.86993" />
    <path
       style="fill:none;stroke:#ff0000;stroke-width:5.76913105;stroke-linejoin:round;stroke-miterlimit:0;stroke-dasharray:none;stroke-opacity:1"
       d="m 310.6465,531.18181 c 59.67891,-11.06629 119.35782,-22.13258 168.56366,-35.96561 49.20585,-13.83302 87.93708,-30.43212 114.02203,-43.07939 26.08496,-12.64727 39.52233,-21.34204 57.11004,-36.36079 17.58771,-15.01874 39.32462,-36.36044 56.71464,-56.7147 17.39001,-20.35426 30.43216,-39.71988 41.30092,-58.88846 10.86876,-19.16858 19.56353,-38.13898 26.48001,-54.93617 6.91648,-16.79719 12.0543,-31.4202 16.00657,-46.04365 3.95227,-14.62346 6.71879,-29.24648 9.48536,-43.86979"
       id="path1-0"
       inkscape:path-effect="#path-effect3-2"
       inkscape:original-d="m 310.6465,531.18181 c 59.67891,-11.06629 119.35782,-22.13258 179.03673,-33.19887 38.73278,-16.59976 77.46401,-33.19886 116.19602,-49.79829 13.4379,-8.69511 26.87527,-17.38988 40.3129,-26.08482 21.73779,-21.34255 43.4747,-42.68425 65.21206,-64.02638 13.04267,-19.36639 26.08482,-38.73201 39.12723,-58.09801 8.69511,-18.97116 17.38988,-37.94156 26.08482,-56.91234 5.13802,-14.6236 10.27584,-29.24661 15.41376,-43.86992 2.76662,-14.6236 5.53314,-29.24662 8.29971,-43.86993"
       transform="matrix(0.47958617,0,0,1.0023803,448.87341,12.755708)" />
    <path
       style="fill:none;stroke:#0000ff;stroke-width:5;stroke-linejoin:round;stroke-miterlimit:0;stroke-dasharray:none;stroke-opacity:1"
       d="m 356.99116,140.42312 c 1.97779,20.10753 3.95558,40.21507 9.39459,58.83944 5.43902,18.62436 14.33889,35.76486 28.51326,53.72998 14.17436,17.96512 33.62224,36.75375 55.54299,54.88367 21.92076,18.12992 46.31302,35.60005 77.13396,53.8948 30.82093,18.29475 68.06857,37.41301 94.76891,49.60944 26.70033,12.19643 42.85196,17.47043 64.11347,23.40387 21.26151,5.93344 47.63152,12.52594 73.67269,17.80008 26.04116,5.27415 51.75192,9.22965 73.50779,11.7019 21.75587,2.47225 39.55563,3.46112 57.35574,4.45002"
       id="path9"
       inkscape:path-effect="#path-effect9"
       inkscape:original-d="m 356.99116,140.42312 c 1.97779,20.10753 3.95558,40.21507 5.93337,60.3226 8.90024,17.1412 17.80012,34.2817 26.70017,51.42255 19.44867,18.78939 38.89655,37.57802 58.34482,56.36703 24.39324,17.47083 48.7855,34.94096 73.17824,52.41144 37.24913,19.11903 74.49677,38.23728 111.74516,57.35592 16.15228,5.27422 32.30391,10.54822 48.45586,15.82233 26.37107,6.59276 52.74108,13.18527 79.11162,19.7779 25.71179,3.95566 51.42255,7.91116 77.13382,11.86674 17.80047,0.98892 35.60023,1.97779 53.40034,2.96669" />
  </g>
  <g
     inkscape:groupmode="layer"
     id="layer2"
     inkscape:label="Layer 1" />
  <metadata
     id="metadata2865">
    <rdf:RDF>
      <cc:Work
         rdf:about="">
        <cc:license
           rdf:resource="dsf" />
      </cc:Work>
    </rdf:RDF>
  </metadata>
</svg>
