<?xml version="1.0" encoding="UTF-8" standalone="no"?>
<!-- Created with Inkscape (http://www.inkscape.org/) -->

<svg
   width="1280"
   height="720"
   viewBox="0 0 1280.0001 720.00001"
   version="1.1"
   id="svg5"
   sodipodi:docname="courbe-de-lorenz.svg"
   inkscape:version="1.3.2 (091e20ef0f, 2023-11-25)"
   inkscape:export-filename="../../../slides/docs/media/svg/demand-supply-fall-in-supply.svg"
   inkscape:export-xdpi="96"
   inkscape:export-ydpi="96"
   xmlns:inkscape="http://www.inkscape.org/namespaces/inkscape"
   xmlns:sodipodi="http://sodipodi.sourceforge.net/DTD/sodipodi-0.dtd"
   xmlns="http://www.w3.org/2000/svg"
   xmlns:svg="http://www.w3.org/2000/svg"
   xmlns:rdf="http://www.w3.org/1999/02/22-rdf-syntax-ns#"
   xmlns:cc="http://creativecommons.org/ns#">
  <sodipodi:namedview
     id="namedview7"
     pagecolor="#ffffff"
     bordercolor="#666666"
     borderopacity="1.0"
     inkscape:pageshadow="2"
     inkscape:pageopacity="0.0"
     inkscape:pagecheckerboard="false"
     inkscape:document-units="px"
     showgrid="true"
     units="px"
     inkscape:zoom="0.7145266"
     inkscape:cx="813.12578"
     inkscape:cy="333.08767"
     inkscape:window-width="1611"
     inkscape:window-height="936"
     inkscape:window-x="26"
     inkscape:window-y="23"
     inkscape:window-maximized="0"
     inkscape:current-layer="layer1"
     inkscape:showpageshadow="2"
     inkscape:deskcolor="#d1d1d1"
     borderlayer="true">
    <inkscape:grid
       type="xygrid"
       id="grid507"
       dotted="true"
       color="#0099e5"
       opacity="0.10196078"
       empcolor="#0099e5"
       empopacity="0.10196078"
       empspacing="1"
       originx="0"
       originy="0"
       spacingx="8.0000004"
       spacingy="8.0000004"
       snapvisiblegridlinesonly="true"
       visible="true"
       units="px" />
  </sodipodi:namedview>
  <defs
     id="defs2">
    <inkscape:path-effect
       effect="bspline"
       id="path-effect18"
       is_visible="true"
       lpeversion="1.3"
       weight="33.333333"
       steps="2"
       helper_size="0"
       apply_no_weight="true"
       apply_with_weight="true"
       only_selected="false"
       uniform="false" />
    <inkscape:path-effect
       effect="bspline"
       id="path-effect17"
       is_visible="true"
       lpeversion="1.3"
       weight="33.333333"
       steps="2"
       helper_size="0"
       apply_no_weight="true"
       apply_with_weight="true"
       only_selected="false"
       uniform="false" />
    <inkscape:path-effect
       effect="bspline"
       id="path-effect16"
       is_visible="true"
       lpeversion="1.3"
       weight="33.333333"
       steps="2"
       helper_size="0"
       apply_no_weight="true"
       apply_with_weight="true"
       only_selected="false"
       uniform="false" />
    <marker
       style="overflow:visible"
       id="marker4"
       refX="0"
       refY="0"
       orient="auto-start-reverse"
       inkscape:stockid="Dart arrow"
       markerWidth="1"
       markerHeight="1"
       viewBox="0 0 1 1"
       inkscape:isstock="true"
       inkscape:collect="always"
       preserveAspectRatio="xMidYMid">
      <path
         style="fill:context-stroke;fill-rule:evenodd;stroke:none"
         d="M 0,0 5,-5 -12.5,0 5,5 Z"
         transform="scale(-0.5)"
         id="path4" />
    </marker>
    <marker
       style="overflow:visible"
       id="marker4-2"
       refX="0"
       refY="0"
       orient="auto-start-reverse"
       inkscape:stockid="Dart arrow"
       markerWidth="1"
       markerHeight="1"
       viewBox="0 0 1 1"
       inkscape:isstock="true"
       inkscape:collect="always"
       preserveAspectRatio="xMidYMid">
      <path
         style="fill:context-stroke;fill-rule:evenodd;stroke:none"
         d="M 0,0 5,-5 -12.5,0 5,5 Z"
         transform="scale(-0.5)"
         id="path4-9" />
    </marker>
  </defs>
  <g
     inkscape:label="Template"
     inkscape:groupmode="layer"
     id="layer1">
    <text
       xml:space="preserve"
       style="font-style:normal;font-variant:normal;font-weight:normal;font-stretch:normal;font-size:26.6667px;line-height:1;font-family:sans-serif;-inkscape-font-specification:'sans-serif, Normal';font-variant-ligatures:normal;font-variant-caps:normal;font-variant-numeric:normal;font-variant-east-asian:normal;text-align:center;letter-spacing:0px;word-spacing:0px;text-anchor:middle;fill:#ff0000"
       x="226.77197"
       y="658.30225"
       id="text478-6-0"
       inkscape:label="ClassName"
       transform="rotate(-44.606191)"><tspan
         id="tspan476-1-9"
         x="226.77197"
         y="658.30225"
         style="font-weight:bold;font-size:26.6667px;text-align:center;baseline-shift:baseline;text-anchor:middle;fill:#ff0000;fill-opacity:1"
         sodipodi:role="line">ligne d'égalité (45°)</tspan></text>
    <text
       xml:space="preserve"
       style="font-style:normal;font-variant:normal;font-weight:normal;font-stretch:normal;font-size:26.6667px;line-height:1;font-family:sans-serif;-inkscape-font-specification:'sans-serif, Normal';font-variant-ligatures:normal;font-variant-caps:normal;font-variant-numeric:normal;font-variant-east-asian:normal;text-align:center;letter-spacing:0px;word-spacing:0px;text-anchor:middle;fill:#008000;stroke-width:1;stroke-dasharray:none"
       x="260.28162"
       y="837.83191"
       id="text478-6-0-3"
       inkscape:label="ClassName"
       transform="rotate(-44.606191)"><tspan
         id="tspan476-1-9-6"
         x="260.28162"
         y="837.83191"
         style="font-weight:bold;font-size:26.6667px;text-align:center;baseline-shift:baseline;text-anchor:middle;fill:#008000;fill-opacity:1;stroke:none;stroke-width:1;stroke-dasharray:none;stroke-opacity:1"
         sodipodi:role="line">courbe de Lorenz</tspan></text>
    <text
       xml:space="preserve"
       style="font-style:normal;font-variant:normal;font-weight:normal;font-stretch:normal;font-size:26.6667px;line-height:1;font-family:sans-serif;-inkscape-font-specification:'sans-serif, Normal';font-variant-ligatures:normal;font-variant-caps:normal;font-variant-numeric:normal;font-variant-east-asian:normal;text-align:center;letter-spacing:0px;word-spacing:0px;text-anchor:middle"
       x="931.65491"
       y="637.41071"
       id="text478-6-9"
       inkscape:label="ClassName"><tspan
         id="tspan476-1-1"
         x="931.65491"
         y="637.41071"
         style="font-weight:bold;font-size:26.6667px;text-align:center;baseline-shift:baseline;text-anchor:middle;fill:#000000;fill-opacity:1"
         sodipodi:role="line">100%</tspan></text>
    <text
       xml:space="preserve"
       style="font-style:normal;font-variant:normal;font-weight:normal;font-stretch:normal;font-size:26.6667px;line-height:1;font-family:sans-serif;-inkscape-font-specification:'sans-serif, Normal';font-variant-ligatures:normal;font-variant-caps:normal;font-variant-numeric:normal;font-variant-east-asian:normal;text-align:center;letter-spacing:0px;word-spacing:0px;text-anchor:middle"
       x="1003.7414"
       y="50.672855"
       id="text478-6-9-2"
       inkscape:label="ClassName"><tspan
         id="tspan476-1-1-7"
         x="1003.7414"
         y="50.672855"
         style="font-weight:bold;font-size:26.6667px;text-align:center;baseline-shift:baseline;text-anchor:middle;fill:#000000;fill-opacity:1"
         sodipodi:role="line">100%</tspan></text>
    <text
       xml:space="preserve"
       style="font-style:normal;font-variant:normal;font-weight:normal;font-stretch:normal;font-size:26.6667px;line-height:1;font-family:sans-serif;-inkscape-font-specification:'sans-serif, Normal';font-variant-ligatures:normal;font-variant-caps:normal;font-variant-numeric:normal;font-variant-east-asian:normal;text-align:center;letter-spacing:0px;word-spacing:0px;text-anchor:middle"
       x="-332.96265"
       y="988.21991"
       id="text478-6-9-2-0"
       inkscape:label="ClassName"
       transform="rotate(-90)"><tspan
         id="tspan476-1-1-7-6"
         x="-332.96265"
         y="988.21991"
         style="font-weight:bold;font-size:26.6667px;text-align:center;baseline-shift:baseline;text-anchor:middle;fill:#000000;fill-opacity:1"
         sodipodi:role="line">part cumulée des revenus</tspan></text>
    <text
       xml:space="preserve"
       style="font-style:normal;font-variant:normal;font-weight:normal;font-stretch:normal;font-size:26.6667px;line-height:1;font-family:sans-serif;-inkscape-font-specification:'sans-serif, Normal';font-variant-ligatures:normal;font-variant-caps:normal;font-variant-numeric:normal;font-variant-east-asian:normal;text-align:center;letter-spacing:0px;word-spacing:0px;text-anchor:middle"
       x="641.42426"
       y="640.61859"
       id="text478-6-9-2-0-2"
       inkscape:label="ClassName"><tspan
         x="641.42426"
         y="640.61859"
         style="font-weight:bold;font-size:26.6667px;text-align:center;baseline-shift:baseline;text-anchor:middle;fill:#000000;fill-opacity:1"
         sodipodi:role="line"
         id="tspan2">part cumulée des individus ayant les </tspan><tspan
         x="641.42426"
         y="667.28528"
         style="font-weight:bold;font-size:26.6667px;text-align:center;baseline-shift:baseline;text-anchor:middle;fill:#000000;fill-opacity:1"
         sodipodi:role="line"
         id="tspan3">revenus plus faibles aux plus élevés</tspan></text>
    <path
       style="fill:#ff0000;fill-opacity:1;stroke:#ff0000;stroke-width:4;stroke-miterlimit:0;stroke-dasharray:none;stroke-opacity:1"
       d="M 367.81248,592.76929 598.35034,364.68273 944.23228,22.478558"
       id="path1"
       sodipodi:nodetypes="ccc"
       inkscape:transform-center-x="315.10179"
       inkscape:transform-center-y="173.36462" />
    <path
       style="fill:none;fill-opacity:0;stroke:#010101;stroke-width:4;stroke-miterlimit:0;stroke-dasharray:none;stroke-opacity:1;marker-end:url(#marker4)"
       d="m 371.51661,592.38907 550.52889,1.3109"
       id="path3" />
    <path
       style="fill:none;fill-opacity:0;stroke:#010101;stroke-width:4;stroke-miterlimit:0;stroke-dasharray:none;stroke-opacity:1;marker-end:url(#marker4-2)"
       d="M 945.7703,594.34866 947.08121,43.819761"
       id="path3-1" />
    <path
       style="fill:none;stroke:#008000;stroke-width:4;stroke-dasharray:none"
       d="M 370.73825,592.73292 C 669.65555,571.3376 940.15446,502.15232 944.49007,27.126789"
       id="path2"
       sodipodi:nodetypes="cc" />
  </g>
  <g
     inkscape:groupmode="layer"
     id="layer2"
     inkscape:label="Layer 1" />
  <metadata
     id="metadata2865">
    <rdf:RDF>
      <cc:Work
         rdf:about="">
        <cc:license
           rdf:resource="dsf" />
      </cc:Work>
    </rdf:RDF>
  </metadata>
</svg>
