<?xml version="1.0" encoding="UTF-8" standalone="no"?>
<!-- Created with Inkscape (http://www.inkscape.org/) -->

<svg
   width="1280"
   height="720"
   viewBox="0 0 1280.0001 720.00001"
   version="1.1"
   id="svg5"
   sodipodi:docname="demande-offre-travail-hausse-de-l-offre.svg"
   inkscape:version="1.3.2 (091e20ef0f, 2023-11-25)"
   inkscape:export-filename="../../../slides/docs/media/svg/demand-supply-fall-in-supply.svg"
   inkscape:export-xdpi="96"
   inkscape:export-ydpi="96"
   xmlns:inkscape="http://www.inkscape.org/namespaces/inkscape"
   xmlns:sodipodi="http://sodipodi.sourceforge.net/DTD/sodipodi-0.dtd"
   xmlns="http://www.w3.org/2000/svg"
   xmlns:svg="http://www.w3.org/2000/svg"
   xmlns:rdf="http://www.w3.org/1999/02/22-rdf-syntax-ns#"
   xmlns:cc="http://creativecommons.org/ns#">
  <sodipodi:namedview
     id="namedview7"
     pagecolor="#ffffff"
     bordercolor="#666666"
     borderopacity="1.0"
     inkscape:pageshadow="2"
     inkscape:pageopacity="0.0"
     inkscape:pagecheckerboard="false"
     inkscape:document-units="px"
     showgrid="true"
     units="px"
     inkscape:zoom="1.043315"
     inkscape:cx="657.51952"
     inkscape:cy="403.04221"
     inkscape:window-width="1920"
     inkscape:window-height="1003"
     inkscape:window-x="0"
     inkscape:window-y="0"
     inkscape:window-maximized="1"
     inkscape:current-layer="layer1"
     inkscape:showpageshadow="2"
     inkscape:deskcolor="#d1d1d1"
     borderlayer="true">
    <inkscape:grid
       type="xygrid"
       id="grid507"
       dotted="true"
       color="#0099e5"
       opacity="0.10196078"
       empcolor="#0099e5"
       empopacity="0.10196078"
       empspacing="1"
       originx="0"
       originy="0"
       spacingx="8.0000004"
       spacingy="8.0000004"
       snapvisiblegridlinesonly="true"
       visible="true"
       units="px" />
  </sodipodi:namedview>
  <defs
     id="defs2">
    <inkscape:path-effect
       effect="bspline"
       id="path-effect18"
       is_visible="true"
       lpeversion="1.3"
       weight="33.333333"
       steps="2"
       helper_size="0"
       apply_no_weight="true"
       apply_with_weight="true"
       only_selected="false"
       uniform="false" />
    <inkscape:path-effect
       effect="bspline"
       id="path-effect17"
       is_visible="true"
       lpeversion="1.3"
       weight="33.333333"
       steps="2"
       helper_size="0"
       apply_no_weight="true"
       apply_with_weight="true"
       only_selected="false"
       uniform="false" />
    <inkscape:path-effect
       effect="bspline"
       id="path-effect16"
       is_visible="true"
       lpeversion="1.3"
       weight="33.333333"
       steps="2"
       helper_size="0"
       apply_no_weight="true"
       apply_with_weight="true"
       only_selected="false"
       uniform="false" />
    <marker
       style="overflow:visible"
       id="DartArrow"
       refX="0"
       refY="0"
       orient="auto-start-reverse"
       inkscape:stockid="Dart arrow"
       markerWidth="1"
       markerHeight="1"
       viewBox="0 0 1 1"
       inkscape:isstock="true"
       inkscape:collect="always"
       preserveAspectRatio="xMidYMid">
      <path
         style="fill:context-stroke;fill-rule:evenodd;stroke:none"
         d="M 0,0 5,-5 -12.5,0 5,5 Z"
         transform="scale(-0.5)"
         id="path6" />
    </marker>
    <marker
       style="overflow:visible"
       id="marker4"
       refX="0"
       refY="0"
       orient="auto-start-reverse"
       inkscape:stockid="Dart arrow"
       markerWidth="1"
       markerHeight="1"
       viewBox="0 0 1 1"
       inkscape:isstock="true"
       inkscape:collect="always"
       preserveAspectRatio="xMidYMid">
      <path
         style="fill:context-stroke;fill-rule:evenodd;stroke:none"
         d="M 0,0 5,-5 -12.5,0 5,5 Z"
         transform="scale(-0.5)"
         id="path4" />
    </marker>
  </defs>
  <g
     inkscape:label="Template"
     inkscape:groupmode="layer"
     id="layer1">
    <text
       xml:space="preserve"
       style="font-style:normal;font-variant:normal;font-weight:normal;font-stretch:normal;font-size:26.6667px;line-height:1;font-family:sans-serif;-inkscape-font-specification:'sans-serif, Normal';font-variant-ligatures:normal;font-variant-caps:normal;font-variant-numeric:normal;font-variant-east-asian:normal;text-align:center;letter-spacing:0px;word-spacing:0px;text-anchor:middle"
       x="181.85411"
       y="138.54715"
       id="text478-6"
       inkscape:label="ClassName"><tspan
         id="tspan476-1"
         x="181.85411"
         y="138.54715"
         style="font-weight:bold;font-size:26.6667px;text-align:center;baseline-shift:baseline;text-anchor:middle;fill:#000000;fill-opacity:1"
         sodipodi:role="line">salaire</tspan><tspan
         x="181.85411"
         y="165.21385"
         style="font-weight:normal;font-size:26.6667px;text-align:center;baseline-shift:baseline;text-anchor:middle;fill:#000000;fill-opacity:1"
         sodipodi:role="line"
         id="tspan2">(prix de la </tspan><tspan
         x="181.85411"
         y="191.88055"
         style="font-weight:normal;font-size:26.6667px;text-align:center;baseline-shift:baseline;text-anchor:middle;fill:#000000;fill-opacity:1"
         sodipodi:role="line"
         id="tspan3">main-d'œuvre)</tspan></text>
    <g
       id="g480-9"
       inkscape:label="Class"
       transform="translate(94.618108,-215.58601)">
      <text
         xml:space="preserve"
         style="font-style:normal;font-variant:normal;font-weight:normal;font-stretch:normal;font-size:26.6667px;line-height:1;font-family:sans-serif;-inkscape-font-specification:'sans-serif, Normal';font-variant-ligatures:normal;font-variant-caps:normal;font-variant-numeric:normal;font-variant-east-asian:normal;text-align:center;letter-spacing:0px;word-spacing:0px;text-anchor:middle"
         x="169.181"
         y="565.90826"
         id="text478-6-4"
         inkscape:label="ClassName"><tspan
           id="tspan476-1-2"
           x="169.181"
           y="565.90826"
           style="font-weight:bold;font-size:26.6667px;text-align:center;baseline-shift:baseline;text-anchor:middle;fill:#000000;fill-opacity:1"
           sodipodi:role="line">W</tspan></text>
      <text
         xml:space="preserve"
         style="font-style:normal;font-variant:normal;font-weight:normal;font-stretch:normal;font-size:26.6667px;line-height:1;font-family:sans-serif;-inkscape-font-specification:'sans-serif, Normal';font-variant-ligatures:normal;font-variant-caps:normal;font-variant-numeric:normal;font-variant-east-asian:normal;text-align:center;letter-spacing:0px;word-spacing:0px;text-anchor:middle"
         x="175.27525"
         y="643.62604"
         id="text478-6-4-1"
         inkscape:label="ClassName"><tspan
           id="tspan476-1-2-29"
           x="175.27525"
           y="643.62604"
           style="font-weight:bold;font-size:26.6667px;text-align:center;baseline-shift:baseline;text-anchor:middle;fill:#000000;fill-opacity:1"
           sodipodi:role="line">W<tspan
   style="font-size:65%;baseline-shift:sub"
   id="tspan10">1</tspan></tspan></text>
      <text
         xml:space="preserve"
         style="font-style:normal;font-variant:normal;font-weight:normal;font-stretch:normal;font-size:26.6667px;line-height:1;font-family:sans-serif;-inkscape-font-specification:'sans-serif, Normal';font-variant-ligatures:normal;font-variant-caps:normal;font-variant-numeric:normal;font-variant-east-asian:normal;text-align:center;letter-spacing:0px;word-spacing:0px;text-anchor:middle"
         x="562.5907"
         y="851.15778"
         id="text478-6-4-0"
         inkscape:label="ClassName"><tspan
           id="tspan476-1-2-2"
           x="562.5907"
           y="851.15778"
           style="font-weight:bold;font-size:26.6667px;text-align:center;baseline-shift:baseline;text-anchor:middle;fill:#000000;fill-opacity:1"
           sodipodi:role="line">L</tspan></text>
      <text
         xml:space="preserve"
         style="font-style:normal;font-variant:normal;font-weight:normal;font-stretch:normal;font-size:26.6667px;line-height:1;font-family:sans-serif;-inkscape-font-specification:'sans-serif, Normal';font-variant-ligatures:normal;font-variant-caps:normal;font-variant-numeric:normal;font-variant-east-asian:normal;text-align:center;letter-spacing:0px;word-spacing:0px;text-anchor:middle"
         x="684.98871"
         y="851.8313"
         id="text478-6-4-0-3"
         inkscape:label="ClassName"><tspan
           id="tspan476-1-2-2-1"
           x="684.98871"
           y="851.8313"
           style="font-weight:bold;font-size:26.6667px;text-align:center;baseline-shift:baseline;text-anchor:middle;fill:#000000;fill-opacity:1"
           sodipodi:role="line">L<tspan
   style="font-size:65%;baseline-shift:sub"
   id="tspan11">1</tspan></tspan></text>
    </g>
    <text
       xml:space="preserve"
       style="font-style:normal;font-variant:normal;font-weight:normal;font-stretch:normal;font-size:26.6667px;line-height:1;font-family:sans-serif;-inkscape-font-specification:'sans-serif, Normal';font-variant-ligatures:normal;font-variant-caps:normal;font-variant-numeric:normal;font-variant-east-asian:normal;text-align:center;letter-spacing:0px;word-spacing:0px;text-anchor:middle;fill:#0000ff;fill-opacity:1"
       x="1021.2645"
       y="555.26538"
       id="text478-6-3"
       inkscape:label="ClassName"><tspan
         x="1021.2645"
         y="555.26538"
         style="font-weight:bold;font-size:26.6667px;text-align:center;baseline-shift:baseline;text-anchor:middle;fill:#0000ff;fill-opacity:1"
         sodipodi:role="line"
         id="tspan1">D</tspan></text>
    <text
       xml:space="preserve"
       style="font-style:normal;font-variant:normal;font-weight:normal;font-stretch:normal;font-size:26.6667px;line-height:1;font-family:sans-serif;-inkscape-font-specification:'sans-serif, Normal';font-variant-ligatures:normal;font-variant-caps:normal;font-variant-numeric:normal;font-variant-east-asian:normal;text-align:center;letter-spacing:0px;word-spacing:0px;text-anchor:middle"
       x="1003.2198"
       y="158.88857"
       id="text478-6-3-7"
       inkscape:label="ClassName"><tspan
         id="tspan476-1-8-3"
         x="1003.2198"
         y="158.88857"
         style="font-weight:bold;font-size:26.6667px;text-align:center;baseline-shift:baseline;text-anchor:middle;fill:#ff0000;fill-opacity:1"
         sodipodi:role="line">O</tspan></text>
    <text
       xml:space="preserve"
       style="font-style:normal;font-variant:normal;font-weight:normal;font-stretch:normal;font-size:26.6667px;line-height:1;font-family:sans-serif;-inkscape-font-specification:'sans-serif, Normal';font-variant-ligatures:normal;font-variant-caps:normal;font-variant-numeric:normal;font-variant-east-asian:normal;text-align:center;letter-spacing:0px;word-spacing:0px;text-anchor:middle"
       x="1010.2114"
       y="297.25778"
       id="text478-6-3-7-4"
       inkscape:label="ClassName"><tspan
         id="tspan476-1-8-3-7"
         x="1010.2114"
         y="297.25778"
         style="font-weight:bold;font-size:26.6667px;text-align:center;baseline-shift:baseline;text-anchor:middle;fill:#ff0000;fill-opacity:1"
         sodipodi:role="line">O<tspan
   style="font-size:65%;baseline-shift:sub"
   id="tspan14">1</tspan></tspan></text>
    <path
       style="fill:#ff0000;fill-opacity:1;stroke:#ff0000;stroke-width:4;stroke-miterlimit:0;stroke-opacity:1"
       d="M 349.17592,537.19373 973.66363,149.96658"
       id="path2"
       sodipodi:nodetypes="cc" />
    <path
       style="fill:#ff0000;fill-opacity:1;stroke:#ff0000;stroke-width:4;stroke-miterlimit:0;stroke-opacity:1;stroke-dasharray:none"
       d="M 593.67077,538.54546 986.2793,290.36045"
       id="path2-9"
       sodipodi:nodetypes="cc" />
    <text
       xml:space="preserve"
       style="font-style:normal;font-variant:normal;font-weight:normal;font-stretch:normal;font-size:26.6667px;line-height:1;font-family:sans-serif;-inkscape-font-specification:'sans-serif, Normal';font-variant-ligatures:normal;font-variant-caps:normal;font-variant-numeric:normal;font-variant-east-asian:normal;text-align:center;letter-spacing:0px;word-spacing:0px;text-anchor:middle"
       x="1020.449"
       y="640.10956"
       id="text478-6-9"
       inkscape:label="ClassName"><tspan
         id="tspan476-1-1"
         x="1020.449"
         y="640.10956"
         style="font-weight:bold;font-size:26.6667px;text-align:center;baseline-shift:baseline;text-anchor:middle;fill:#000000;fill-opacity:1"
         sodipodi:role="line">quantité de main-d'œuvre</tspan></text>
    <text
       xml:space="preserve"
       style="font-style:normal;font-variant:normal;font-weight:normal;font-stretch:normal;font-size:26.6667px;line-height:1;font-family:sans-serif;-inkscape-font-specification:'sans-serif, Normal';font-variant-ligatures:normal;font-variant-caps:normal;font-variant-numeric:normal;font-variant-east-asian:normal;text-align:center;letter-spacing:0px;word-spacing:0px;text-anchor:middle"
       x="725.83295"
       y="668.8399"
       id="text478-6-9-5"
       inkscape:label="ClassName"><tspan
         x="725.83295"
         y="668.8399"
         style="font-weight:normal;font-size:26.6667px;text-align:center;baseline-shift:baseline;text-anchor:middle;fill:#000000;fill-opacity:1"
         sodipodi:role="line"
         id="tspan4">augmentation </tspan><tspan
         x="725.83295"
         y="695.50659"
         style="font-weight:normal;font-size:26.6667px;text-align:center;baseline-shift:baseline;text-anchor:middle;fill:#000000;fill-opacity:1"
         sodipodi:role="line"
         id="tspan13">de l'emploi</tspan></text>
    <text
       xml:space="preserve"
       style="font-style:normal;font-variant:normal;font-weight:normal;font-stretch:normal;font-size:26.6667px;line-height:1;font-family:sans-serif;-inkscape-font-specification:'sans-serif, Normal';font-variant-ligatures:normal;font-variant-caps:normal;font-variant-numeric:normal;font-variant-east-asian:normal;text-align:center;letter-spacing:0px;word-spacing:0px;text-anchor:middle"
       x="1093.2401"
       y="196.65335"
       id="text478-6-9-5-8"
       inkscape:label="ClassName"><tspan
         x="1093.2401"
         y="196.65335"
         style="font-weight:normal;font-size:26.6667px;text-align:center;baseline-shift:baseline;text-anchor:middle;fill:#000000;fill-opacity:1"
         sodipodi:role="line"
         id="tspan4-4">augmentation </tspan><tspan
         x="1093.2401"
         y="223.32005"
         style="font-weight:normal;font-size:26.6667px;text-align:center;baseline-shift:baseline;text-anchor:middle;fill:#000000;fill-opacity:1"
         sodipodi:role="line"
         id="tspan13-5">de l'offre de la</tspan><tspan
         x="1093.2401"
         y="249.98676"
         style="font-weight:normal;font-size:26.6667px;text-align:center;baseline-shift:baseline;text-anchor:middle;fill:#000000;fill-opacity:1"
         sodipodi:role="line"
         id="tspan15">main d'œuvre</tspan></text>
    <text
       xml:space="preserve"
       style="font-style:normal;font-variant:normal;font-weight:normal;font-stretch:normal;font-size:26.6667px;line-height:1;font-family:sans-serif;-inkscape-font-specification:'sans-serif, Normal';font-variant-ligatures:normal;font-variant-caps:normal;font-variant-numeric:normal;font-variant-east-asian:normal;text-align:center;letter-spacing:0px;word-spacing:0px;text-anchor:middle"
       x="135.88924"
       y="376.75452"
       id="text478-6-9-5-2"
       inkscape:label="ClassName"><tspan
         x="135.88924"
         y="376.75452"
         style="font-weight:normal;font-size:26.6667px;text-align:center;baseline-shift:baseline;text-anchor:middle;fill:#000000;fill-opacity:1"
         sodipodi:role="line"
         id="tspan4-8">baisse </tspan><tspan
         x="135.88924"
         y="403.4212"
         style="font-weight:normal;font-size:26.6667px;text-align:center;baseline-shift:baseline;text-anchor:middle;fill:#000000;fill-opacity:1"
         sodipodi:role="line"
         id="tspan12">des salaires</tspan></text>
    <path
       style="fill:none;fill-opacity:0;stroke:#0000ff;stroke-width:4;stroke-miterlimit:0;stroke-opacity:1"
       d="M 346.93762,145.48997 978.14024,546.14696"
       id="path1"
       sodipodi:nodetypes="cc" />
    <path
       style="fill:#0000ff;fill-opacity:1;stroke:#000000;stroke-width:4;stroke-miterlimit:0;stroke-dasharray:4, 12;stroke-dashoffset:0;stroke-opacity:1"
       d="M 658.22988,355.51777 V 595.21081"
       id="path7" />
    <path
       style="fill:#0000ff;fill-opacity:1;stroke:#000000;stroke-width:4;stroke-miterlimit:0;stroke-dasharray:4, 12;stroke-dashoffset:0;stroke-opacity:1"
       d="M 653.16766,344.64533 H 300.35005"
       id="path8" />
    <path
       style="fill:none;fill-opacity:0;stroke:#010101;stroke-width:4;stroke-miterlimit:0;stroke-dasharray:none;stroke-opacity:1;marker-end:url(#marker4)"
       d="m 299.67476,588.47332 709.38364,0.95748"
       id="path3" />
    <path
       style="fill:none;fill-opacity:0;stroke:#010101;stroke-width:4;stroke-miterlimit:0;stroke-dasharray:none;stroke-opacity:1;marker-end:url(#DartArrow)"
       d="M 298.05065,590.28824 V 129.68718"
       id="path5" />
    <path
       style="fill:#000000;stroke:#000000;stroke-width:4;stroke-dasharray:4,11.9999611;stroke-dashoffset:0"
       d="M 779.06771,420.29791 H 297.87643"
       id="path9" />
    <path
       style="fill:#000000;stroke:#000000;stroke-width:4;stroke-dasharray:4,11.99998686;stroke-dashoffset:0"
       d="M 779.84863,588.77414 V 423.10472"
       id="path10" />
  </g>
  <g
     inkscape:groupmode="layer"
     id="layer2"
     inkscape:label="Layer 1" />
  <metadata
     id="metadata2865">
    <rdf:RDF>
      <cc:Work
         rdf:about="">
        <cc:license
           rdf:resource="dsf" />
      </cc:Work>
    </rdf:RDF>
  </metadata>
</svg>
