<?xml version="1.0" encoding="UTF-8" standalone="no"?>
<!-- Created with Inkscape (http://www.inkscape.org/) -->

<svg
   width="1280"
   height="720"
   viewBox="0 0 1280.0001 720.00001"
   version="1.1"
   id="svg5"
   sodipodi:docname="demand-curve-elastic.svg"
   inkscape:version="1.3 (0e150ed, 2023-07-21)"
   inkscape:export-filename="../../../slides/docs/media/svg/demand-supply-fall-in-supply.svg"
   inkscape:export-xdpi="96"
   inkscape:export-ydpi="96"
   xmlns:inkscape="http://www.inkscape.org/namespaces/inkscape"
   xmlns:sodipodi="http://sodipodi.sourceforge.net/DTD/sodipodi-0.dtd"
   xmlns="http://www.w3.org/2000/svg"
   xmlns:svg="http://www.w3.org/2000/svg"
   xmlns:rdf="http://www.w3.org/1999/02/22-rdf-syntax-ns#"
   xmlns:cc="http://creativecommons.org/ns#">
  <sodipodi:namedview
     id="namedview7"
     pagecolor="#ffffff"
     bordercolor="#666666"
     borderopacity="1.0"
     inkscape:pageshadow="2"
     inkscape:pageopacity="0.0"
     inkscape:pagecheckerboard="false"
     inkscape:document-units="px"
     showgrid="true"
     units="px"
     inkscape:zoom="0.73773514"
     inkscape:cx="631.66301"
     inkscape:cy="343.61926"
     inkscape:window-width="1384"
     inkscape:window-height="804"
     inkscape:window-x="234"
     inkscape:window-y="25"
     inkscape:window-maximized="0"
     inkscape:current-layer="g480-9"
     inkscape:showpageshadow="2"
     inkscape:deskcolor="#d1d1d1"
     borderlayer="true">
    <inkscape:grid
       type="xygrid"
       id="grid507"
       dotted="true"
       color="#0099e5"
       opacity="0.10196078"
       empcolor="#0099e5"
       empopacity="0.10196078"
       empspacing="1"
       originx="0"
       originy="0"
       spacingx="8.0000004"
       spacingy="8.0000004"
       snapvisiblegridlinesonly="true"
       visible="true"
       units="px" />
  </sodipodi:namedview>
  <defs
     id="defs2">
    <inkscape:path-effect
       effect="bspline"
       id="path-effect18"
       is_visible="true"
       lpeversion="1.3"
       weight="33.333333"
       steps="2"
       helper_size="0"
       apply_no_weight="true"
       apply_with_weight="true"
       only_selected="false"
       uniform="false" />
    <inkscape:path-effect
       effect="bspline"
       id="path-effect17"
       is_visible="true"
       lpeversion="1.3"
       weight="33.333333"
       steps="2"
       helper_size="0"
       apply_no_weight="true"
       apply_with_weight="true"
       only_selected="false"
       uniform="false" />
    <inkscape:path-effect
       effect="bspline"
       id="path-effect16"
       is_visible="true"
       lpeversion="1.3"
       weight="33.333333"
       steps="2"
       helper_size="0"
       apply_no_weight="true"
       apply_with_weight="true"
       only_selected="false"
       uniform="false" />
    <marker
       style="overflow:visible"
       id="marker15"
       refX="0"
       refY="0"
       orient="auto-start-reverse"
       inkscape:stockid="Triangle arrow"
       markerWidth="1"
       markerHeight="1"
       viewBox="0 0 1 1"
       inkscape:isstock="true"
       inkscape:collect="always"
       preserveAspectRatio="xMidYMid">
      <path
         transform="scale(0.5)"
         style="fill:context-stroke;fill-rule:evenodd;stroke:context-stroke;stroke-width:1pt"
         d="M 5.77,0 -2.88,5 V -5 Z"
         id="path15" />
    </marker>
    <marker
       style="overflow:visible"
       id="marker13"
       refX="0"
       refY="0"
       orient="auto-start-reverse"
       inkscape:stockid="Triangle arrow"
       markerWidth="1"
       markerHeight="1"
       viewBox="0 0 1 1"
       inkscape:isstock="true"
       inkscape:collect="always"
       preserveAspectRatio="xMidYMid">
      <path
         transform="scale(0.5)"
         style="fill:context-stroke;fill-rule:evenodd;stroke:context-stroke;stroke-width:1pt"
         d="M 5.77,0 -2.88,5 V -5 Z"
         id="path13" />
    </marker>
    <marker
       style="overflow:visible"
       id="Triangle"
       refX="0"
       refY="0"
       orient="auto-start-reverse"
       inkscape:stockid="Triangle arrow"
       markerWidth="1"
       markerHeight="1"
       viewBox="0 0 1 1"
       inkscape:isstock="true"
       inkscape:collect="always"
       preserveAspectRatio="xMidYMid">
      <path
         transform="scale(0.5)"
         style="fill:context-stroke;fill-rule:evenodd;stroke:context-stroke;stroke-width:1pt"
         d="M 5.77,0 -2.88,5 V -5 Z"
         id="path135" />
    </marker>
    <marker
       style="overflow:visible"
       id="DartArrow"
       refX="0"
       refY="0"
       orient="auto-start-reverse"
       inkscape:stockid="Dart arrow"
       markerWidth="1"
       markerHeight="1"
       viewBox="0 0 1 1"
       inkscape:isstock="true"
       inkscape:collect="always"
       preserveAspectRatio="xMidYMid">
      <path
         style="fill:context-stroke;fill-rule:evenodd;stroke:none"
         d="M 0,0 5,-5 -12.5,0 5,5 Z"
         transform="scale(-0.5)"
         id="path6" />
    </marker>
    <marker
       style="overflow:visible"
       id="marker4"
       refX="0"
       refY="0"
       orient="auto-start-reverse"
       inkscape:stockid="Dart arrow"
       markerWidth="1"
       markerHeight="1"
       viewBox="0 0 1 1"
       inkscape:isstock="true"
       inkscape:collect="always"
       preserveAspectRatio="xMidYMid">
      <path
         style="fill:context-stroke;fill-rule:evenodd;stroke:none"
         d="M 0,0 5,-5 -12.5,0 5,5 Z"
         transform="scale(-0.5)"
         id="path4" />
    </marker>
  </defs>
  <g
     inkscape:label="Template"
     inkscape:groupmode="layer"
     id="layer1">
    <text
       xml:space="preserve"
       style="font-style:normal;font-variant:normal;font-weight:normal;font-stretch:normal;font-size:26.6667px;line-height:1;font-family:sans-serif;-inkscape-font-specification:'sans-serif, Normal';font-variant-ligatures:normal;font-variant-caps:normal;font-variant-numeric:normal;font-variant-east-asian:normal;text-align:center;letter-spacing:0px;word-spacing:0px;text-anchor:middle"
       x="233.85411"
       y="130.54715"
       id="text478-6"
       inkscape:label="ClassName"><tspan
         id="tspan476-1"
         x="233.85411"
         y="130.54715"
         style="font-weight:bold;font-size:26.6667px;text-align:center;baseline-shift:baseline;text-anchor:middle;fill:#000000;fill-opacity:1"
         sodipodi:role="line">price</tspan></text>
    <g
       id="g480-9"
       inkscape:label="Class"
       transform="translate(94.618108,-215.58601)">
      <text
         xml:space="preserve"
         style="font-style:normal;font-variant:normal;font-weight:normal;font-stretch:normal;font-size:26.6667px;line-height:1;font-family:sans-serif;-inkscape-font-specification:'sans-serif, Normal';font-variant-ligatures:normal;font-variant-caps:normal;font-variant-numeric:normal;font-variant-east-asian:normal;text-align:center;letter-spacing:0px;word-spacing:0px;text-anchor:middle"
         x="169.181"
         y="565.90826"
         id="text478-6-4"
         inkscape:label="ClassName"><tspan
           id="tspan476-1-2"
           x="169.181"
           y="565.90826"
           style="font-weight:bold;font-size:26.6667px;text-align:center;baseline-shift:baseline;text-anchor:middle;fill:#000000;fill-opacity:1"
           sodipodi:role="line">P</tspan></text>
      <text
         xml:space="preserve"
         style="font-style:normal;font-variant:normal;font-weight:normal;font-stretch:normal;font-size:26.6667px;line-height:1;font-family:sans-serif;-inkscape-font-specification:'sans-serif, Normal';font-variant-ligatures:normal;font-variant-caps:normal;font-variant-numeric:normal;font-variant-east-asian:normal;text-align:center;letter-spacing:0px;word-spacing:0px;text-anchor:middle"
         x="173.20651"
         y="472.34943"
         id="text478-6-4-1"
         inkscape:label="ClassName"><tspan
           id="tspan476-1-2-8"
           x="173.20651"
           y="472.34943"
           style="font-weight:bold;font-size:26.6667px;text-align:center;baseline-shift:baseline;text-anchor:middle;fill:#000000;fill-opacity:1"
           sodipodi:role="line">P'</tspan></text>
      <text
         xml:space="preserve"
         style="font-style:normal;font-variant:normal;font-weight:normal;font-stretch:normal;font-size:26.6667px;line-height:1;font-family:sans-serif;-inkscape-font-specification:'sans-serif, Normal';font-variant-ligatures:normal;font-variant-caps:normal;font-variant-numeric:normal;font-variant-east-asian:normal;text-align:center;letter-spacing:0px;word-spacing:0px;text-anchor:middle"
         x="562.5907"
         y="851.15778"
         id="text478-6-4-0"
         inkscape:label="ClassName"><tspan
           id="tspan476-1-2-2"
           x="562.5907"
           y="851.15778"
           style="font-weight:bold;font-size:26.6667px;text-align:center;baseline-shift:baseline;text-anchor:middle;fill:#000000;fill-opacity:1"
           sodipodi:role="line">Q</tspan></text>
      <text
         xml:space="preserve"
         style="font-style:normal;font-variant:normal;font-weight:normal;font-stretch:normal;font-size:26.6667px;line-height:1;font-family:sans-serif;-inkscape-font-specification:'sans-serif, Normal';font-variant-ligatures:normal;font-variant-caps:normal;font-variant-numeric:normal;font-variant-east-asian:normal;text-align:center;letter-spacing:0px;word-spacing:0px;text-anchor:middle"
         x="713.37537"
         y="850.37769"
         id="text478-6-4-0-4"
         inkscape:label="ClassName"><tspan
           id="tspan476-1-2-2-8"
           x="713.37537"
           y="850.37769"
           style="font-weight:bold;font-size:26.6667px;text-align:center;baseline-shift:baseline;text-anchor:middle;fill:#000000;fill-opacity:1"
           sodipodi:role="line">Q'</tspan></text>
      <path
         style="fill:#0000ff;stroke:#000000;stroke-width:2;stroke-miterlimit:0;stroke-dasharray:none;marker-end:url(#Triangle)"
         d="m 585.42863,842.83357 h 97.21233"
         id="path11" />
      <path
         style="fill:#0000ff;stroke:#000000;stroke-width:2;stroke-miterlimit:0;stroke-dasharray:none;marker-end:url(#marker13)"
         d="M 169.12109,538.00715 V 486.3631"
         id="path12" />
      <path
         style="fill:#0000ff;stroke:#000000;stroke-width:2;stroke-miterlimit:0;stroke-dasharray:none;marker-end:url(#marker15)"
         d="m 786.99534,680.52693 37.08771,-48.83927 41.44255,-54.57398"
         id="path14"
         sodipodi:nodetypes="ccc" />
    </g>
    <text
       xml:space="preserve"
       style="font-style:normal;font-variant:normal;font-weight:normal;font-stretch:normal;font-size:26.6667px;line-height:1;font-family:sans-serif;-inkscape-font-specification:'sans-serif, Normal';font-variant-ligatures:normal;font-variant-caps:normal;font-variant-numeric:normal;font-variant-east-asian:normal;text-align:center;letter-spacing:0px;word-spacing:0px;text-anchor:middle;fill:#0000ff;fill-opacity:1"
       x="1029.2645"
       y="561.26538"
       id="text478-6-3"
       inkscape:label="ClassName"><tspan
         x="1029.2645"
         y="561.26538"
         style="font-weight:bold;font-size:26.6667px;text-align:center;baseline-shift:baseline;text-anchor:middle;fill:#0000ff;fill-opacity:1"
         sodipodi:role="line"
         id="tspan1">D</tspan></text>
    <text
       xml:space="preserve"
       style="font-style:normal;font-variant:normal;font-weight:normal;font-stretch:normal;font-size:26.6667px;line-height:1;font-family:sans-serif;-inkscape-font-specification:'sans-serif, Normal';font-variant-ligatures:normal;font-variant-caps:normal;font-variant-numeric:normal;font-variant-east-asian:normal;text-align:center;letter-spacing:0px;word-spacing:0px;text-anchor:middle"
       x="1025.2198"
       y="148.88857"
       id="text478-6-3-7"
       inkscape:label="ClassName"><tspan
         id="tspan476-1-8-3"
         x="1025.2198"
         y="148.88857"
         style="font-weight:bold;font-size:26.6667px;text-align:center;baseline-shift:baseline;text-anchor:middle;fill:#ff0000;fill-opacity:1"
         sodipodi:role="line">S</tspan></text>
    <path
       style="fill:#ff0000;fill-opacity:1;stroke:#ff0000;stroke-width:4;stroke-miterlimit:0;stroke-opacity:1"
       d="M 349.17592,537.19373 973.66363,149.96658"
       id="path2"
       sodipodi:nodetypes="cc" />
    <text
       xml:space="preserve"
       style="font-style:normal;font-variant:normal;font-weight:normal;font-stretch:normal;font-size:26.6667px;line-height:1;font-family:sans-serif;-inkscape-font-specification:'sans-serif, Normal';font-variant-ligatures:normal;font-variant-caps:normal;font-variant-numeric:normal;font-variant-east-asian:normal;text-align:center;letter-spacing:0px;word-spacing:0px;text-anchor:middle"
       x="972.44897"
       y="636.10956"
       id="text478-6-9"
       inkscape:label="ClassName"><tspan
         id="tspan476-1-1"
         x="972.44897"
         y="636.10956"
         style="font-weight:bold;font-size:26.6667px;text-align:center;baseline-shift:baseline;text-anchor:middle;fill:#000000;fill-opacity:1"
         sodipodi:role="line">quantity</tspan></text>
    <path
       style="fill:none;fill-opacity:0;stroke:#0000ff;stroke-width:4;stroke-miterlimit:0;stroke-opacity:1"
       d="M 346.93762,145.48997 978.14024,546.14696"
       id="path1"
       sodipodi:nodetypes="cc" />
    <path
       style="fill:#0000ff;fill-opacity:1;stroke:#000000;stroke-width:4;stroke-miterlimit:0;stroke-dasharray:4, 12;stroke-dashoffset:0;stroke-opacity:1"
       d="M 658.22988,355.51777 V 595.21081"
       id="path7" />
    <path
       style="fill:#0000ff;fill-opacity:1;stroke:#000000;stroke-width:4;stroke-miterlimit:0;stroke-dasharray:4, 12;stroke-dashoffset:0;stroke-opacity:1"
       d="M 653.16766,344.64533 H 300.35005"
       id="path8" />
    <path
       style="fill:none;fill-opacity:0;stroke:#010101;stroke-width:4;stroke-miterlimit:0;stroke-dasharray:none;stroke-opacity:1;marker-end:url(#marker4)"
       d="m 299.67476,588.47332 709.38364,0.95748"
       id="path3" />
    <path
       style="fill:none;fill-opacity:0;stroke:#010101;stroke-width:4;stroke-miterlimit:0;stroke-dasharray:none;stroke-opacity:1;marker-end:url(#DartArrow)"
       d="M 298.05065,590.28824 V 129.68718"
       id="path5" />
    <path
       style="fill:#389853;stroke:#0000ff;stroke-width:4;stroke-linejoin:round;stroke-miterlimit:0;stroke-dasharray:none;stroke-opacity:1"
       d="M 589.79226,144.70739 C 717.32478,224.36954 844.85731,304.0317 972.38984,383.69385"
       id="path16"
       inkscape:path-effect="#path-effect16"
       inkscape:original-d="M 589.79226,144.70739 C 717.32478,224.36955 844.85731,304.0317 972.38984,383.69385"
       transform="translate(30,-12)" />
    <path
       style="fill:#389853;stroke:#000000;stroke-width:4;stroke-linejoin:round;stroke-miterlimit:0;stroke-dasharray:4, 12;stroke-opacity:1;stroke-dashoffset:0"
       d="m 807.48086,249.31759 c -170.41371,0 -340.82742,0 -511.24114,0"
       id="path17"
       inkscape:path-effect="#path-effect17"
       inkscape:original-d="m 807.48086,249.31759 c -170.41371,0 -340.82742,0 -511.24114,0" />
    <path
       style="fill:#389853;stroke:#000000;stroke-width:4;stroke-linejoin:round;stroke-miterlimit:0;stroke-dasharray:4, 12;stroke-dashoffset:0;stroke-opacity:1"
       d="m 808.18724,252.69273 c 0,111.43296 0,222.86592 0,334.29889"
       id="path18"
       inkscape:path-effect="#path-effect18"
       inkscape:original-d="m 808.18724,252.69273 c 0,111.43296 0,222.86592 0,334.29889" />
  </g>
  <g
     inkscape:groupmode="layer"
     id="layer2"
     inkscape:label="Layer 1" />
  <metadata
     id="metadata2865">
    <rdf:RDF>
      <cc:Work
         rdf:about="">
        <cc:license
           rdf:resource="dsf" />
      </cc:Work>
    </rdf:RDF>
  </metadata>
</svg>
