<?xml version="1.0" encoding="UTF-8" standalone="no"?>
<!-- Created with Inkscape (http://www.inkscape.org/) -->

<svg
   width="1280"
   height="720"
   viewBox="0 0 1280.0001 720.00001"
   version="1.1"
   id="svg5"
   sodipodi:docname="offre-travail-elastique-inelastique.svg"
   inkscape:version="1.3.2 (091e20ef0f, 2023-11-25)"
   inkscape:export-filename="../../../slides/docs/media/svg/demand-supply-fall-in-supply.svg"
   inkscape:export-xdpi="96"
   inkscape:export-ydpi="96"
   xmlns:inkscape="http://www.inkscape.org/namespaces/inkscape"
   xmlns:sodipodi="http://sodipodi.sourceforge.net/DTD/sodipodi-0.dtd"
   xmlns="http://www.w3.org/2000/svg"
   xmlns:svg="http://www.w3.org/2000/svg"
   xmlns:rdf="http://www.w3.org/1999/02/22-rdf-syntax-ns#"
   xmlns:cc="http://creativecommons.org/ns#">
  <sodipodi:namedview
     id="namedview7"
     pagecolor="#ffffff"
     bordercolor="#666666"
     borderopacity="1.0"
     inkscape:pageshadow="2"
     inkscape:pageopacity="0.0"
     inkscape:pagecheckerboard="false"
     inkscape:document-units="px"
     showgrid="true"
     units="px"
     inkscape:zoom="0.73773514"
     inkscape:cx="630.30751"
     inkscape:cy="343.61926"
     inkscape:window-width="1920"
     inkscape:window-height="1003"
     inkscape:window-x="0"
     inkscape:window-y="0"
     inkscape:window-maximized="1"
     inkscape:current-layer="layer1"
     inkscape:showpageshadow="2"
     inkscape:deskcolor="#d1d1d1"
     borderlayer="true">
    <inkscape:grid
       type="xygrid"
       id="grid507"
       dotted="true"
       color="#0099e5"
       opacity="0.10196078"
       empcolor="#0099e5"
       empopacity="0.10196078"
       empspacing="1"
       originx="0"
       originy="0"
       spacingx="8.0000004"
       spacingy="8.0000004"
       snapvisiblegridlinesonly="true"
       visible="true"
       units="px" />
  </sodipodi:namedview>
  <defs
     id="defs2">
    <inkscape:path-effect
       effect="bspline"
       id="path-effect18"
       is_visible="true"
       lpeversion="1.3"
       weight="33.333333"
       steps="2"
       helper_size="0"
       apply_no_weight="true"
       apply_with_weight="true"
       only_selected="false"
       uniform="false" />
    <inkscape:path-effect
       effect="bspline"
       id="path-effect17"
       is_visible="true"
       lpeversion="1.3"
       weight="33.333333"
       steps="2"
       helper_size="0"
       apply_no_weight="true"
       apply_with_weight="true"
       only_selected="false"
       uniform="false" />
    <inkscape:path-effect
       effect="bspline"
       id="path-effect16"
       is_visible="true"
       lpeversion="1.3"
       weight="33.333333"
       steps="2"
       helper_size="0"
       apply_no_weight="true"
       apply_with_weight="true"
       only_selected="false"
       uniform="false" />
    <marker
       style="overflow:visible"
       id="DartArrow"
       refX="0"
       refY="0"
       orient="auto-start-reverse"
       inkscape:stockid="Dart arrow"
       markerWidth="1"
       markerHeight="1"
       viewBox="0 0 1 1"
       inkscape:isstock="true"
       inkscape:collect="always"
       preserveAspectRatio="xMidYMid">
      <path
         style="fill:context-stroke;fill-rule:evenodd;stroke:none"
         d="M 0,0 5,-5 -12.5,0 5,5 Z"
         transform="scale(-0.5)"
         id="path6" />
    </marker>
    <marker
       style="overflow:visible"
       id="marker4"
       refX="0"
       refY="0"
       orient="auto-start-reverse"
       inkscape:stockid="Dart arrow"
       markerWidth="1"
       markerHeight="1"
       viewBox="0 0 1 1"
       inkscape:isstock="true"
       inkscape:collect="always"
       preserveAspectRatio="xMidYMid">
      <path
         style="fill:context-stroke;fill-rule:evenodd;stroke:none"
         d="M 0,0 5,-5 -12.5,0 5,5 Z"
         transform="scale(-0.5)"
         id="path4" />
    </marker>
  </defs>
  <g
     inkscape:label="Template"
     inkscape:groupmode="layer"
     id="layer1">
    <text
       xml:space="preserve"
       style="font-style:normal;font-variant:normal;font-weight:normal;font-stretch:normal;font-size:26.6667px;line-height:1;font-family:sans-serif;-inkscape-font-specification:'sans-serif, Normal';font-variant-ligatures:normal;font-variant-caps:normal;font-variant-numeric:normal;font-variant-east-asian:normal;text-align:center;letter-spacing:0px;word-spacing:0px;text-anchor:middle"
       x="169.85411"
       y="130.54715"
       id="text478-6"
       inkscape:label="ClassName"><tspan
         id="tspan476-1"
         x="169.85411"
         y="130.54715"
         style="font-weight:bold;font-size:26.6667px;text-align:center;baseline-shift:baseline;text-anchor:middle;fill:#000000;fill-opacity:1"
         sodipodi:role="line">taux de salaire</tspan></text>
    <text
       xml:space="preserve"
       style="font-style:normal;font-variant:normal;font-weight:normal;font-stretch:normal;font-size:26.6667px;line-height:1;font-family:sans-serif;-inkscape-font-specification:'sans-serif, Normal';font-variant-ligatures:normal;font-variant-caps:normal;font-variant-numeric:normal;font-variant-east-asian:normal;text-align:center;letter-spacing:0px;word-spacing:0px;text-anchor:middle"
       x="1063.2197"
       y="178.88857"
       id="text478-6-3-7"
       inkscape:label="ClassName"><tspan
         id="tspan476-1-8-3"
         x="1063.2197"
         y="178.88857"
         style="font-weight:bold;font-size:26.6667px;text-align:center;baseline-shift:baseline;text-anchor:middle;fill:#ff0000;fill-opacity:1"
         sodipodi:role="line">L<tspan
   style="font-size:65%;baseline-shift:sub"
   id="tspan3">2</tspan></tspan></text>
    <text
       xml:space="preserve"
       style="font-style:normal;font-variant:normal;font-weight:normal;font-stretch:normal;font-size:26.6667px;line-height:1;font-family:sans-serif;-inkscape-font-specification:'sans-serif, Normal';font-variant-ligatures:normal;font-variant-caps:normal;font-variant-numeric:normal;font-variant-east-asian:normal;text-align:center;letter-spacing:0px;word-spacing:0px;text-anchor:middle"
       x="670.61322"
       y="124.61842"
       id="text478-6-3-7-7"
       inkscape:label="ClassName"><tspan
         id="tspan476-1-8-3-5"
         x="670.61322"
         y="124.61842"
         style="font-weight:bold;font-size:26.6667px;text-align:center;baseline-shift:baseline;text-anchor:middle;fill:#ff0000;fill-opacity:1"
         sodipodi:role="line">L<tspan
   style="font-size:65%;baseline-shift:sub"
   id="tspan4">1</tspan></tspan></text>
    <path
       style="fill:#ff0000;fill-opacity:1;stroke:#ff0000;stroke-width:4;stroke-miterlimit:0;stroke-opacity:1"
       d="M 405.17592,559.19373 1029.6636,171.96658"
       id="path2"
       sodipodi:nodetypes="cc" />
    <path
       style="fill:#ff0000;fill-opacity:1;stroke:#ff0000;stroke-width:4;stroke-miterlimit:0;stroke-opacity:1;stroke-dasharray:none"
       d="M 337.77728,560.07611 646.48141,123.40177"
       id="path2-6"
       sodipodi:nodetypes="cc" />
    <text
       xml:space="preserve"
       style="font-style:normal;font-variant:normal;font-weight:normal;font-stretch:normal;font-size:26.6667px;line-height:1;font-family:sans-serif;-inkscape-font-specification:'sans-serif, Normal';font-variant-ligatures:normal;font-variant-caps:normal;font-variant-numeric:normal;font-variant-east-asian:normal;text-align:center;letter-spacing:0px;word-spacing:0px;text-anchor:middle"
       x="984.44897"
       y="632.10956"
       id="text478-6-9"
       inkscape:label="ClassName"><tspan
         x="984.44897"
         y="632.10956"
         style="font-weight:bold;font-size:26.6667px;text-align:center;baseline-shift:baseline;text-anchor:middle;fill:#000000;fill-opacity:1"
         sodipodi:role="line"
         id="tspan2">nombre de travailleurs</tspan></text>
    <path
       style="fill:none;fill-opacity:0;stroke:#010101;stroke-width:4;stroke-miterlimit:0;stroke-dasharray:none;stroke-opacity:1;marker-end:url(#marker4)"
       d="m 299.67476,588.47332 709.38364,0.95748"
       id="path3" />
    <path
       style="fill:none;fill-opacity:0;stroke:#010101;stroke-width:4;stroke-miterlimit:0;stroke-dasharray:none;stroke-opacity:1;marker-end:url(#DartArrow)"
       d="M 298.05065,590.28824 V 129.68718"
       id="path5" />
  </g>
  <g
     inkscape:groupmode="layer"
     id="layer2"
     inkscape:label="Layer 1" />
  <metadata
     id="metadata2865">
    <rdf:RDF>
      <cc:Work
         rdf:about="">
        <cc:license
           rdf:resource="dsf" />
      </cc:Work>
    </rdf:RDF>
  </metadata>
</svg>
