﻿DATAFLOW,SPECIFICATION: Spécification,FREQ: Fréquence,TIME_PERIOD: Période,OBS_VALUE,NOTE_MONTH_2: Note Mois 2,NOTE_MONTH_1: Note Mois 1,NOTE_SPECIFICATION_2: Note specification 2,NOTE_SPECIFICATION_1: Note specification 1,OBS_STATUS: Statut d'observation,DECIMALS: Décimales
LU1:DF_B3019(1.0),C11: 11. Taux de chômage (en %) - données cvs (9 / 10),M: Mensuelle,2000-01,2.46118800540736,,,C11: 11. Taux de chômage (en %) - données cvs (9 / 10),,,1: Un
LU1:DF_B3019(1.0),C11: 11. Taux de chômage (en %) - données cvs (9 / 10),M: Mensuelle,2000-02,2.48750637985808,,,C11: 11. Taux de chômage (en %) - données cvs (9 / 10),,,1: Un
LU1:DF_B3019(1.0),C11: 11. Taux de chômage (en %) - données cvs (9 / 10),M: Mensuelle,2000-03,2.48889235207168,,,C11: 11. Taux de chômage (en %) - données cvs (9 / 10),,,1: Un
LU1:DF_B3019(1.0),C11: 11. Taux de chômage (en %) - données cvs (9 / 10),M: Mensuelle,2000-04,2.42844855704991,,,C11: 11. Taux de chômage (en %) - données cvs (9 / 10),,,1: Un
LU1:DF_B3019(1.0),C11: 11. Taux de chômage (en %) - données cvs (9 / 10),M: Mensuelle,2000-05,2.4566256666231,,,C11: 11. Taux de chômage (en %) - données cvs (9 / 10),,,1: Un
LU1:DF_B3019(1.0),C11: 11. Taux de chômage (en %) - données cvs (9 / 10),M: Mensuelle,2000-06,2.43001297906991,,,C11: 11. Taux de chômage (en %) - données cvs (9 / 10),,,1: Un
LU1:DF_B3019(1.0),C11: 11. Taux de chômage (en %) - données cvs (9 / 10),M: Mensuelle,2000-07,2.36635768238332,,,C11: 11. Taux de chômage (en %) - données cvs (9 / 10),,,1: Un
LU1:DF_B3019(1.0),C11: 11. Taux de chômage (en %) - données cvs (9 / 10),M: Mensuelle,2000-08,2.38353665712982,,,C11: 11. Taux de chômage (en %) - données cvs (9 / 10),,,1: Un
LU1:DF_B3019(1.0),C11: 11. Taux de chômage (en %) - données cvs (9 / 10),M: Mensuelle,2000-09,2.35353138999793,,,C11: 11. Taux de chômage (en %) - données cvs (9 / 10),,,1: Un
LU1:DF_B3019(1.0),C11: 11. Taux de chômage (en %) - données cvs (9 / 10),M: Mensuelle,2000-10,2.27531936523998,,,C11: 11. Taux de chômage (en %) - données cvs (9 / 10),,,1: Un
LU1:DF_B3019(1.0),C11: 11. Taux de chômage (en %) - données cvs (9 / 10),M: Mensuelle,2000-11,2.26594871391041,,,C11: 11. Taux de chômage (en %) - données cvs (9 / 10),,,1: Un
LU1:DF_B3019(1.0),C11: 11. Taux de chômage (en %) - données cvs (9 / 10),M: Mensuelle,2000-12,2.24445548331983,,,C11: 11. Taux de chômage (en %) - données cvs (9 / 10),,,1: Un
LU1:DF_B3019(1.0),C11: 11. Taux de chômage (en %) - données cvs (9 / 10),M: Mensuelle,2001-01,2.18502720313389,,,C11: 11. Taux de chômage (en %) - données cvs (9 / 10),,,1: Un
LU1:DF_B3019(1.0),C11: 11. Taux de chômage (en %) - données cvs (9 / 10),M: Mensuelle,2001-02,2.17575252033245,,,C11: 11. Taux de chômage (en %) - données cvs (9 / 10),,,1: Un
LU1:DF_B3019(1.0),C11: 11. Taux de chômage (en %) - données cvs (9 / 10),M: Mensuelle,2001-03,2.19191344382223,,,C11: 11. Taux de chômage (en %) - données cvs (9 / 10),,,1: Un
LU1:DF_B3019(1.0),C11: 11. Taux de chômage (en %) - données cvs (9 / 10),M: Mensuelle,2001-04,2.20425732008866,,,C11: 11. Taux de chômage (en %) - données cvs (9 / 10),,,1: Un
LU1:DF_B3019(1.0),C11: 11. Taux de chômage (en %) - données cvs (9 / 10),M: Mensuelle,2001-05,2.16784767259067,,,C11: 11. Taux de chômage (en %) - données cvs (9 / 10),,,1: Un
LU1:DF_B3019(1.0),C11: 11. Taux de chômage (en %) - données cvs (9 / 10),M: Mensuelle,2001-06,2.2266561282162,,,C11: 11. Taux de chômage (en %) - données cvs (9 / 10),,,1: Un
LU1:DF_B3019(1.0),C11: 11. Taux de chômage (en %) - données cvs (9 / 10),M: Mensuelle,2001-07,2.20692685912963,,,C11: 11. Taux de chômage (en %) - données cvs (9 / 10),,,1: Un
LU1:DF_B3019(1.0),C11: 11. Taux de chômage (en %) - données cvs (9 / 10),M: Mensuelle,2001-08,2.21632735930517,,,C11: 11. Taux de chômage (en %) - données cvs (9 / 10),,,1: Un
LU1:DF_B3019(1.0),C11: 11. Taux de chômage (en %) - données cvs (9 / 10),M: Mensuelle,2001-09,2.16279961278728,,,C11: 11. Taux de chômage (en %) - données cvs (9 / 10),,,1: Un
LU1:DF_B3019(1.0),C11: 11. Taux de chômage (en %) - données cvs (9 / 10),M: Mensuelle,2001-10,2.26835259126842,,,C11: 11. Taux de chômage (en %) - données cvs (9 / 10),,,1: Un
LU1:DF_B3019(1.0),C11: 11. Taux de chômage (en %) - données cvs (9 / 10),M: Mensuelle,2001-11,2.2717024638756,,,C11: 11. Taux de chômage (en %) - données cvs (9 / 10),,,1: Un
LU1:DF_B3019(1.0),C11: 11. Taux de chômage (en %) - données cvs (9 / 10),M: Mensuelle,2001-12,2.24298216027558,,,C11: 11. Taux de chômage (en %) - données cvs (9 / 10),,,1: Un
LU1:DF_B3019(1.0),C11: 11. Taux de chômage (en %) - données cvs (9 / 10),M: Mensuelle,2002-01,2.31077300776461,,,C11: 11. Taux de chômage (en %) - données cvs (9 / 10),,,1: Un
LU1:DF_B3019(1.0),C11: 11. Taux de chômage (en %) - données cvs (9 / 10),M: Mensuelle,2002-02,2.26464986981109,,,C11: 11. Taux de chômage (en %) - données cvs (9 / 10),,,1: Un
LU1:DF_B3019(1.0),C11: 11. Taux de chômage (en %) - données cvs (9 / 10),M: Mensuelle,2002-03,2.2415912643131,,,C11: 11. Taux de chômage (en %) - données cvs (9 / 10),,,1: Un
LU1:DF_B3019(1.0),C11: 11. Taux de chômage (en %) - données cvs (9 / 10),M: Mensuelle,2002-04,2.27800647915557,,,C11: 11. Taux de chômage (en %) - données cvs (9 / 10),,,1: Un
LU1:DF_B3019(1.0),C11: 11. Taux de chômage (en %) - données cvs (9 / 10),M: Mensuelle,2002-05,2.37605177574387,,,C11: 11. Taux de chômage (en %) - données cvs (9 / 10),,,1: Un
LU1:DF_B3019(1.0),C11: 11. Taux de chômage (en %) - données cvs (9 / 10),M: Mensuelle,2002-06,2.38956161113953,,,C11: 11. Taux de chômage (en %) - données cvs (9 / 10),,,1: Un
LU1:DF_B3019(1.0),C11: 11. Taux de chômage (en %) - données cvs (9 / 10),M: Mensuelle,2002-07,2.49062323112898,,,C11: 11. Taux de chômage (en %) - données cvs (9 / 10),,,1: Un
LU1:DF_B3019(1.0),C11: 11. Taux de chômage (en %) - données cvs (9 / 10),M: Mensuelle,2002-08,2.56594199181218,,,C11: 11. Taux de chômage (en %) - données cvs (9 / 10),,,1: Un
LU1:DF_B3019(1.0),C11: 11. Taux de chômage (en %) - données cvs (9 / 10),M: Mensuelle,2002-09,2.58069406553596,,,C11: 11. Taux de chômage (en %) - données cvs (9 / 10),,,1: Un
LU1:DF_B3019(1.0),C11: 11. Taux de chômage (en %) - données cvs (9 / 10),M: Mensuelle,2002-10,2.73292334219278,,,C11: 11. Taux de chômage (en %) - données cvs (9 / 10),,,1: Un
LU1:DF_B3019(1.0),C11: 11. Taux de chômage (en %) - données cvs (9 / 10),M: Mensuelle,2002-11,2.78654728150698,,,C11: 11. Taux de chômage (en %) - données cvs (9 / 10),,,1: Un
LU1:DF_B3019(1.0),C11: 11. Taux de chômage (en %) - données cvs (9 / 10),M: Mensuelle,2002-12,2.86631303404849,,,C11: 11. Taux de chômage (en %) - données cvs (9 / 10),,,1: Un
LU1:DF_B3019(1.0),C11: 11. Taux de chômage (en %) - données cvs (9 / 10),M: Mensuelle,2003-01,2.97406105302923,,,C11: 11. Taux de chômage (en %) - données cvs (9 / 10),,,1: Un
LU1:DF_B3019(1.0),C11: 11. Taux de chômage (en %) - données cvs (9 / 10),M: Mensuelle,2003-02,3.06161193915099,,,C11: 11. Taux de chômage (en %) - données cvs (9 / 10),,,1: Un
LU1:DF_B3019(1.0),C11: 11. Taux de chômage (en %) - données cvs (9 / 10),M: Mensuelle,2003-03,3.11394404037068,,,C11: 11. Taux de chômage (en %) - données cvs (9 / 10),,,1: Un
LU1:DF_B3019(1.0),C11: 11. Taux de chômage (en %) - données cvs (9 / 10),M: Mensuelle,2003-04,3.17849734237997,,,C11: 11. Taux de chômage (en %) - données cvs (9 / 10),,,1: Un
LU1:DF_B3019(1.0),C11: 11. Taux de chômage (en %) - données cvs (9 / 10),M: Mensuelle,2003-05,3.27199146915617,,,C11: 11. Taux de chômage (en %) - données cvs (9 / 10),,,1: Un
LU1:DF_B3019(1.0),C11: 11. Taux de chômage (en %) - données cvs (9 / 10),M: Mensuelle,2003-06,3.30663756257959,,,C11: 11. Taux de chômage (en %) - données cvs (9 / 10),,,1: Un
LU1:DF_B3019(1.0),C11: 11. Taux de chômage (en %) - données cvs (9 / 10),M: Mensuelle,2003-07,3.35328546904849,,,C11: 11. Taux de chômage (en %) - données cvs (9 / 10),,,1: Un
LU1:DF_B3019(1.0),C11: 11. Taux de chômage (en %) - données cvs (9 / 10),M: Mensuelle,2003-08,3.34601545797838,,,C11: 11. Taux de chômage (en %) - données cvs (9 / 10),,,1: Un
LU1:DF_B3019(1.0),C11: 11. Taux de chômage (en %) - données cvs (9 / 10),M: Mensuelle,2003-09,3.41206214543705,,,C11: 11. Taux de chômage (en %) - données cvs (9 / 10),,,1: Un
LU1:DF_B3019(1.0),C11: 11. Taux de chômage (en %) - données cvs (9 / 10),M: Mensuelle,2003-10,3.44983372010919,,,C11: 11. Taux de chômage (en %) - données cvs (9 / 10),,,1: Un
LU1:DF_B3019(1.0),C11: 11. Taux de chômage (en %) - données cvs (9 / 10),M: Mensuelle,2003-11,3.4735492028313,,,C11: 11. Taux de chômage (en %) - données cvs (9 / 10),,,1: Un
LU1:DF_B3019(1.0),C11: 11. Taux de chômage (en %) - données cvs (9 / 10),M: Mensuelle,2003-12,3.46484800321964,,,C11: 11. Taux de chômage (en %) - données cvs (9 / 10),,,1: Un
LU1:DF_B3019(1.0),C11: 11. Taux de chômage (en %) - données cvs (9 / 10),M: Mensuelle,2004-01,3.57078410851958,,,C11: 11. Taux de chômage (en %) - données cvs (9 / 10),,,1: Un
LU1:DF_B3019(1.0),C11: 11. Taux de chômage (en %) - données cvs (9 / 10),M: Mensuelle,2004-02,3.57188454915044,,,C11: 11. Taux de chômage (en %) - données cvs (9 / 10),,,1: Un
LU1:DF_B3019(1.0),C11: 11. Taux de chômage (en %) - données cvs (9 / 10),M: Mensuelle,2004-03,3.664953740001,,,C11: 11. Taux de chômage (en %) - données cvs (9 / 10),,,1: Un
LU1:DF_B3019(1.0),C11: 11. Taux de chômage (en %) - données cvs (9 / 10),M: Mensuelle,2004-04,3.72265110175489,,,C11: 11. Taux de chômage (en %) - données cvs (9 / 10),,,1: Un
LU1:DF_B3019(1.0),C11: 11. Taux de chômage (en %) - données cvs (9 / 10),M: Mensuelle,2004-05,3.60603632899704,,,C11: 11. Taux de chômage (en %) - données cvs (9 / 10),,,1: Un
LU1:DF_B3019(1.0),C11: 11. Taux de chômage (en %) - données cvs (9 / 10),M: Mensuelle,2004-06,3.68387162812839,,,C11: 11. Taux de chômage (en %) - données cvs (9 / 10),,,1: Un
LU1:DF_B3019(1.0),C11: 11. Taux de chômage (en %) - données cvs (9 / 10),M: Mensuelle,2004-07,3.71727944607121,,,C11: 11. Taux de chômage (en %) - données cvs (9 / 10),,,1: Un
LU1:DF_B3019(1.0),C11: 11. Taux de chômage (en %) - données cvs (9 / 10),M: Mensuelle,2004-08,3.73052678788254,,,C11: 11. Taux de chômage (en %) - données cvs (9 / 10),,,1: Un
LU1:DF_B3019(1.0),C11: 11. Taux de chômage (en %) - données cvs (9 / 10),M: Mensuelle,2004-09,3.74276373709923,,,C11: 11. Taux de chômage (en %) - données cvs (9 / 10),,,1: Un
LU1:DF_B3019(1.0),C11: 11. Taux de chômage (en %) - données cvs (9 / 10),M: Mensuelle,2004-10,3.70358829346888,,,C11: 11. Taux de chômage (en %) - données cvs (9 / 10),,,1: Un
LU1:DF_B3019(1.0),C11: 11. Taux de chômage (en %) - données cvs (9 / 10),M: Mensuelle,2004-11,3.79893007452302,,,C11: 11. Taux de chômage (en %) - données cvs (9 / 10),,,1: Un
LU1:DF_B3019(1.0),C11: 11. Taux de chômage (en %) - données cvs (9 / 10),M: Mensuelle,2004-12,3.81801472389913,,,C11: 11. Taux de chômage (en %) - données cvs (9 / 10),,,1: Un
LU1:DF_B3019(1.0),C11: 11. Taux de chômage (en %) - données cvs (9 / 10),M: Mensuelle,2005-01,3.80100287160029,,,C11: 11. Taux de chômage (en %) - données cvs (9 / 10),,,1: Un
LU1:DF_B3019(1.0),C11: 11. Taux de chômage (en %) - données cvs (9 / 10),M: Mensuelle,2005-02,3.9050400333572,,,C11: 11. Taux de chômage (en %) - données cvs (9 / 10),,,1: Un
LU1:DF_B3019(1.0),C11: 11. Taux de chômage (en %) - données cvs (9 / 10),M: Mensuelle,2005-03,3.93613359631492,,,C11: 11. Taux de chômage (en %) - données cvs (9 / 10),,,1: Un
LU1:DF_B3019(1.0),C11: 11. Taux de chômage (en %) - données cvs (9 / 10),M: Mensuelle,2005-04,4.04585717726337,,,C11: 11. Taux de chômage (en %) - données cvs (9 / 10),,,1: Un
LU1:DF_B3019(1.0),C11: 11. Taux de chômage (en %) - données cvs (9 / 10),M: Mensuelle,2005-05,4.12059158360143,,,C11: 11. Taux de chômage (en %) - données cvs (9 / 10),,,1: Un
LU1:DF_B3019(1.0),C11: 11. Taux de chômage (en %) - données cvs (9 / 10),M: Mensuelle,2005-06,4.1444997835145,,,C11: 11. Taux de chômage (en %) - données cvs (9 / 10),,,1: Un
LU1:DF_B3019(1.0),C11: 11. Taux de chômage (en %) - données cvs (9 / 10),M: Mensuelle,2005-07,4.15390952630582,,,C11: 11. Taux de chômage (en %) - données cvs (9 / 10),,,1: Un
LU1:DF_B3019(1.0),C11: 11. Taux de chômage (en %) - données cvs (9 / 10),M: Mensuelle,2005-08,4.20247802807449,,,C11: 11. Taux de chômage (en %) - données cvs (9 / 10),,,1: Un
LU1:DF_B3019(1.0),C11: 11. Taux de chômage (en %) - données cvs (9 / 10),M: Mensuelle,2005-09,4.23108926693653,,,C11: 11. Taux de chômage (en %) - données cvs (9 / 10),,,1: Un
LU1:DF_B3019(1.0),C11: 11. Taux de chômage (en %) - données cvs (9 / 10),M: Mensuelle,2005-10,4.22274721640456,,,C11: 11. Taux de chômage (en %) - données cvs (9 / 10),,,1: Un
LU1:DF_B3019(1.0),C11: 11. Taux de chômage (en %) - données cvs (9 / 10),M: Mensuelle,2005-11,4.20713387106708,,,C11: 11. Taux de chômage (en %) - données cvs (9 / 10),,,1: Un
LU1:DF_B3019(1.0),C11: 11. Taux de chômage (en %) - données cvs (9 / 10),M: Mensuelle,2005-12,4.2141604868963,,,C11: 11. Taux de chômage (en %) - données cvs (9 / 10),,,1: Un
LU1:DF_B3019(1.0),C11: 11. Taux de chômage (en %) - données cvs (9 / 10),M: Mensuelle,2006-01,4.20893523764427,,,C11: 11. Taux de chômage (en %) - données cvs (9 / 10),,,1: Un
LU1:DF_B3019(1.0),C11: 11. Taux de chômage (en %) - données cvs (9 / 10),M: Mensuelle,2006-02,4.21916791242089,,,C11: 11. Taux de chômage (en %) - données cvs (9 / 10),,,1: Un
LU1:DF_B3019(1.0),C11: 11. Taux de chômage (en %) - données cvs (9 / 10),M: Mensuelle,2006-03,4.30839073738951,,,C11: 11. Taux de chômage (en %) - données cvs (9 / 10),,,1: Un
LU1:DF_B3019(1.0),C11: 11. Taux de chômage (en %) - données cvs (9 / 10),M: Mensuelle,2006-04,4.18606536587747,,,C11: 11. Taux de chômage (en %) - données cvs (9 / 10),,,1: Un
LU1:DF_B3019(1.0),C11: 11. Taux de chômage (en %) - données cvs (9 / 10),M: Mensuelle,2006-05,4.10686801881294,,,C11: 11. Taux de chômage (en %) - données cvs (9 / 10),,,1: Un
LU1:DF_B3019(1.0),C11: 11. Taux de chômage (en %) - données cvs (9 / 10),M: Mensuelle,2006-06,4.12114482191528,,,C11: 11. Taux de chômage (en %) - données cvs (9 / 10),,,1: Un
LU1:DF_B3019(1.0),C11: 11. Taux de chômage (en %) - données cvs (9 / 10),M: Mensuelle,2006-07,4.15328297362222,,,C11: 11. Taux de chômage (en %) - données cvs (9 / 10),,,1: Un
LU1:DF_B3019(1.0),C11: 11. Taux de chômage (en %) - données cvs (9 / 10),M: Mensuelle,2006-08,4.1875514212906,,,C11: 11. Taux de chômage (en %) - données cvs (9 / 10),,,1: Un
LU1:DF_B3019(1.0),C11: 11. Taux de chômage (en %) - données cvs (9 / 10),M: Mensuelle,2006-09,4.29485173549291,,,C11: 11. Taux de chômage (en %) - données cvs (9 / 10),,,1: Un
LU1:DF_B3019(1.0),C11: 11. Taux de chômage (en %) - données cvs (9 / 10),M: Mensuelle,2006-10,4.29963126750683,,,C11: 11. Taux de chômage (en %) - données cvs (9 / 10),,,1: Un
LU1:DF_B3019(1.0),C11: 11. Taux de chômage (en %) - données cvs (9 / 10),M: Mensuelle,2006-11,4.32778347053768,,,C11: 11. Taux de chômage (en %) - données cvs (9 / 10),,,1: Un
LU1:DF_B3019(1.0),C11: 11. Taux de chômage (en %) - données cvs (9 / 10),M: Mensuelle,2006-12,4.35686270355375,,,C11: 11. Taux de chômage (en %) - données cvs (9 / 10),,,1: Un
LU1:DF_B3019(1.0),C11: 11. Taux de chômage (en %) - données cvs (9 / 10),M: Mensuelle,2007-01,4.34368763975845,,,C11: 11. Taux de chômage (en %) - données cvs (9 / 10),,,1: Un
LU1:DF_B3019(1.0),C11: 11. Taux de chômage (en %) - données cvs (9 / 10),M: Mensuelle,2007-02,4.3080756484634,,,C11: 11. Taux de chômage (en %) - données cvs (9 / 10),,,1: Un
LU1:DF_B3019(1.0),C11: 11. Taux de chômage (en %) - données cvs (9 / 10),M: Mensuelle,2007-03,4.31594230914747,,,C11: 11. Taux de chômage (en %) - données cvs (9 / 10),,,1: Un
LU1:DF_B3019(1.0),C11: 11. Taux de chômage (en %) - données cvs (9 / 10),M: Mensuelle,2007-04,4.25740088929305,,,C11: 11. Taux de chômage (en %) - données cvs (9 / 10),,,1: Un
LU1:DF_B3019(1.0),C11: 11. Taux de chômage (en %) - données cvs (9 / 10),M: Mensuelle,2007-05,4.19316802626606,,,C11: 11. Taux de chômage (en %) - données cvs (9 / 10),,,1: Un
LU1:DF_B3019(1.0),C11: 11. Taux de chômage (en %) - données cvs (9 / 10),M: Mensuelle,2007-06,4.19182181015354,,,C11: 11. Taux de chômage (en %) - données cvs (9 / 10),,,1: Un
LU1:DF_B3019(1.0),C11: 11. Taux de chômage (en %) - données cvs (9 / 10),M: Mensuelle,2007-07,4.13959068120714,,,C11: 11. Taux de chômage (en %) - données cvs (9 / 10),,,1: Un
LU1:DF_B3019(1.0),C11: 11. Taux de chômage (en %) - données cvs (9 / 10),M: Mensuelle,2007-08,4.15891133299185,,,C11: 11. Taux de chômage (en %) - données cvs (9 / 10),,,1: Un
LU1:DF_B3019(1.0),C11: 11. Taux de chômage (en %) - données cvs (9 / 10),M: Mensuelle,2007-09,4.08655990599982,,,C11: 11. Taux de chômage (en %) - données cvs (9 / 10),,,1: Un
LU1:DF_B3019(1.0),C11: 11. Taux de chômage (en %) - données cvs (9 / 10),M: Mensuelle,2007-10,4.09785770301835,,,C11: 11. Taux de chômage (en %) - données cvs (9 / 10),,,1: Un
LU1:DF_B3019(1.0),C11: 11. Taux de chômage (en %) - données cvs (9 / 10),M: Mensuelle,2007-11,4.10605244115013,,,C11: 11. Taux de chômage (en %) - données cvs (9 / 10),,,1: Un
LU1:DF_B3019(1.0),C11: 11. Taux de chômage (en %) - données cvs (9 / 10),M: Mensuelle,2007-12,3.99347413390586,,,C11: 11. Taux de chômage (en %) - données cvs (9 / 10),,,1: Un
LU1:DF_B3019(1.0),C11: 11. Taux de chômage (en %) - données cvs (9 / 10),M: Mensuelle,2008-01,4.01370835918127,,,C11: 11. Taux de chômage (en %) - données cvs (9 / 10),,,1: Un
LU1:DF_B3019(1.0),C11: 11. Taux de chômage (en %) - données cvs (9 / 10),M: Mensuelle,2008-02,4.02642794526915,,,C11: 11. Taux de chômage (en %) - données cvs (9 / 10),,,1: Un
LU1:DF_B3019(1.0),C11: 11. Taux de chômage (en %) - données cvs (9 / 10),M: Mensuelle,2008-03,3.94220367809642,,,C11: 11. Taux de chômage (en %) - données cvs (9 / 10),,,1: Un
LU1:DF_B3019(1.0),C11: 11. Taux de chômage (en %) - données cvs (9 / 10),M: Mensuelle,2008-04,4.01859545197741,,,C11: 11. Taux de chômage (en %) - données cvs (9 / 10),,,1: Un
LU1:DF_B3019(1.0),C11: 11. Taux de chômage (en %) - données cvs (9 / 10),M: Mensuelle,2008-05,4.12580748361678,,,C11: 11. Taux de chômage (en %) - données cvs (9 / 10),,,1: Un
LU1:DF_B3019(1.0),C11: 11. Taux de chômage (en %) - données cvs (9 / 10),M: Mensuelle,2008-06,4.06117283101201,,,C11: 11. Taux de chômage (en %) - données cvs (9 / 10),,,1: Un
LU1:DF_B3019(1.0),C11: 11. Taux de chômage (en %) - données cvs (9 / 10),M: Mensuelle,2008-07,4.11229049616896,,,C11: 11. Taux de chômage (en %) - données cvs (9 / 10),,,1: Un
LU1:DF_B3019(1.0),C11: 11. Taux de chômage (en %) - données cvs (9 / 10),M: Mensuelle,2008-08,4.14844242390936,,,C11: 11. Taux de chômage (en %) - données cvs (9 / 10),,,1: Un
LU1:DF_B3019(1.0),C11: 11. Taux de chômage (en %) - données cvs (9 / 10),M: Mensuelle,2008-09,4.21094011509185,,,C11: 11. Taux de chômage (en %) - données cvs (9 / 10),,,1: Un
LU1:DF_B3019(1.0),C11: 11. Taux de chômage (en %) - données cvs (9 / 10),M: Mensuelle,2008-10,4.28378750192709,,,C11: 11. Taux de chômage (en %) - données cvs (9 / 10),,,1: Un
LU1:DF_B3019(1.0),C11: 11. Taux de chômage (en %) - données cvs (9 / 10),M: Mensuelle,2008-11,4.37624030309103,,,C11: 11. Taux de chômage (en %) - données cvs (9 / 10),,,1: Un
LU1:DF_B3019(1.0),C11: 11. Taux de chômage (en %) - données cvs (9 / 10),M: Mensuelle,2008-12,4.51439011201502,,,C11: 11. Taux de chômage (en %) - données cvs (9 / 10),,,1: Un
LU1:DF_B3019(1.0),C11: 11. Taux de chômage (en %) - données cvs (9 / 10),M: Mensuelle,2009-01,4.92816975353813,,,C11: 11. Taux de chômage (en %) - données cvs (9 / 10),,,1: Un
LU1:DF_B3019(1.0),C11: 11. Taux de chômage (en %) - données cvs (9 / 10),M: Mensuelle,2009-02,5.07657804338994,,,C11: 11. Taux de chômage (en %) - données cvs (9 / 10),,,1: Un
LU1:DF_B3019(1.0),C11: 11. Taux de chômage (en %) - données cvs (9 / 10),M: Mensuelle,2009-03,5.19658148215315,,,C11: 11. Taux de chômage (en %) - données cvs (9 / 10),,,1: Un
LU1:DF_B3019(1.0),C11: 11. Taux de chômage (en %) - données cvs (9 / 10),M: Mensuelle,2009-04,5.34430158358489,,,C11: 11. Taux de chômage (en %) - données cvs (9 / 10),,,1: Un
LU1:DF_B3019(1.0),C11: 11. Taux de chômage (en %) - données cvs (9 / 10),M: Mensuelle,2009-05,5.47001597638113,,,C11: 11. Taux de chômage (en %) - données cvs (9 / 10),,,1: Un
LU1:DF_B3019(1.0),C11: 11. Taux de chômage (en %) - données cvs (9 / 10),M: Mensuelle,2009-06,5.55776205356001,,,C11: 11. Taux de chômage (en %) - données cvs (9 / 10),,,1: Un
LU1:DF_B3019(1.0),C11: 11. Taux de chômage (en %) - données cvs (9 / 10),M: Mensuelle,2009-07,5.58525841671662,,,C11: 11. Taux de chômage (en %) - données cvs (9 / 10),,,1: Un
LU1:DF_B3019(1.0),C11: 11. Taux de chômage (en %) - données cvs (9 / 10),M: Mensuelle,2009-08,5.62877736184247,,,C11: 11. Taux de chômage (en %) - données cvs (9 / 10),,,1: Un
LU1:DF_B3019(1.0),C11: 11. Taux de chômage (en %) - données cvs (9 / 10),M: Mensuelle,2009-09,5.66364553971696,,,C11: 11. Taux de chômage (en %) - données cvs (9 / 10),,,1: Un
LU1:DF_B3019(1.0),C11: 11. Taux de chômage (en %) - données cvs (9 / 10),M: Mensuelle,2009-10,5.75436199576476,,,C11: 11. Taux de chômage (en %) - données cvs (9 / 10),,,1: Un
LU1:DF_B3019(1.0),C11: 11. Taux de chômage (en %) - données cvs (9 / 10),M: Mensuelle,2009-11,5.75528755334602,,,C11: 11. Taux de chômage (en %) - données cvs (9 / 10),,,1: Un
LU1:DF_B3019(1.0),C11: 11. Taux de chômage (en %) - données cvs (9 / 10),M: Mensuelle,2009-12,5.71951968470175,,,C11: 11. Taux de chômage (en %) - données cvs (9 / 10),,,1: Un
LU1:DF_B3019(1.0),C11: 11. Taux de chômage (en %) - données cvs (9 / 10),M: Mensuelle,2010-01,5.7710716798891,,,C11: 11. Taux de chômage (en %) - données cvs (9 / 10),,,1: Un
LU1:DF_B3019(1.0),C11: 11. Taux de chômage (en %) - données cvs (9 / 10),M: Mensuelle,2010-02,5.84367414532847,,,C11: 11. Taux de chômage (en %) - données cvs (9 / 10),,,1: Un
LU1:DF_B3019(1.0),C11: 11. Taux de chômage (en %) - données cvs (9 / 10),M: Mensuelle,2010-03,5.84520849149623,,,C11: 11. Taux de chômage (en %) - données cvs (9 / 10),,,1: Un
LU1:DF_B3019(1.0),C11: 11. Taux de chômage (en %) - données cvs (9 / 10),M: Mensuelle,2010-04,5.78723095809449,,,C11: 11. Taux de chômage (en %) - données cvs (9 / 10),,,1: Un
LU1:DF_B3019(1.0),C11: 11. Taux de chômage (en %) - données cvs (9 / 10),M: Mensuelle,2010-05,5.72782479709815,,,C11: 11. Taux de chômage (en %) - données cvs (9 / 10),,,1: Un
LU1:DF_B3019(1.0),C11: 11. Taux de chômage (en %) - données cvs (9 / 10),M: Mensuelle,2010-06,5.8066461964273,,,C11: 11. Taux de chômage (en %) - données cvs (9 / 10),,,1: Un
LU1:DF_B3019(1.0),C11: 11. Taux de chômage (en %) - données cvs (9 / 10),M: Mensuelle,2010-07,5.75400494517392,,,C11: 11. Taux de chômage (en %) - données cvs (9 / 10),,,1: Un
LU1:DF_B3019(1.0),C11: 11. Taux de chômage (en %) - données cvs (9 / 10),M: Mensuelle,2010-08,5.82637292980752,,,C11: 11. Taux de chômage (en %) - données cvs (9 / 10),,,1: Un
LU1:DF_B3019(1.0),C11: 11. Taux de chômage (en %) - données cvs (9 / 10),M: Mensuelle,2010-09,5.82773326695296,,,C11: 11. Taux de chômage (en %) - données cvs (9 / 10),,,1: Un
LU1:DF_B3019(1.0),C11: 11. Taux de chômage (en %) - données cvs (9 / 10),M: Mensuelle,2010-10,5.87934645170605,,,C11: 11. Taux de chômage (en %) - données cvs (9 / 10),,,1: Un
LU1:DF_B3019(1.0),C11: 11. Taux de chômage (en %) - données cvs (9 / 10),M: Mensuelle,2010-11,5.93646321607859,,,C11: 11. Taux de chômage (en %) - données cvs (9 / 10),,,1: Un
LU1:DF_B3019(1.0),C11: 11. Taux de chômage (en %) - données cvs (9 / 10),M: Mensuelle,2010-12,5.86906057473651,,,C11: 11. Taux de chômage (en %) - données cvs (9 / 10),,,1: Un
LU1:DF_B3019(1.0),C11: 11. Taux de chômage (en %) - données cvs (9 / 10),M: Mensuelle,2011-01,5.67203286076119,,,C11: 11. Taux de chômage (en %) - données cvs (9 / 10),,,1: Un
LU1:DF_B3019(1.0),C11: 11. Taux de chômage (en %) - données cvs (9 / 10),M: Mensuelle,2011-02,5.59236572922154,,,C11: 11. Taux de chômage (en %) - données cvs (9 / 10),,,1: Un
LU1:DF_B3019(1.0),C11: 11. Taux de chômage (en %) - données cvs (9 / 10),M: Mensuelle,2011-03,5.54146036653729,,,C11: 11. Taux de chômage (en %) - données cvs (9 / 10),,,1: Un
LU1:DF_B3019(1.0),C11: 11. Taux de chômage (en %) - données cvs (9 / 10),M: Mensuelle,2011-04,5.56976207222975,,,C11: 11. Taux de chômage (en %) - données cvs (9 / 10),,,1: Un
LU1:DF_B3019(1.0),C11: 11. Taux de chômage (en %) - données cvs (9 / 10),M: Mensuelle,2011-05,5.57274447739399,,,C11: 11. Taux de chômage (en %) - données cvs (9 / 10),,,1: Un
LU1:DF_B3019(1.0),C11: 11. Taux de chômage (en %) - données cvs (9 / 10),M: Mensuelle,2011-06,5.55630436637357,,,C11: 11. Taux de chômage (en %) - données cvs (9 / 10),,,1: Un
LU1:DF_B3019(1.0),C11: 11. Taux de chômage (en %) - données cvs (9 / 10),M: Mensuelle,2011-07,5.75096823309737,,,C11: 11. Taux de chômage (en %) - données cvs (9 / 10),,,1: Un
LU1:DF_B3019(1.0),C11: 11. Taux de chômage (en %) - données cvs (9 / 10),M: Mensuelle,2011-08,5.79227029255377,,,C11: 11. Taux de chômage (en %) - données cvs (9 / 10),,,1: Un
LU1:DF_B3019(1.0),C11: 11. Taux de chômage (en %) - données cvs (9 / 10),M: Mensuelle,2011-09,5.74208418951434,,,C11: 11. Taux de chômage (en %) - données cvs (9 / 10),,,1: Un
LU1:DF_B3019(1.0),C11: 11. Taux de chômage (en %) - données cvs (9 / 10),M: Mensuelle,2011-10,5.69681772496271,,,C11: 11. Taux de chômage (en %) - données cvs (9 / 10),,,1: Un
LU1:DF_B3019(1.0),C11: 11. Taux de chômage (en %) - données cvs (9 / 10),M: Mensuelle,2011-11,5.63076886414335,,,C11: 11. Taux de chômage (en %) - données cvs (9 / 10),,,1: Un
LU1:DF_B3019(1.0),C11: 11. Taux de chômage (en %) - données cvs (9 / 10),M: Mensuelle,2011-12,5.82485436220758,,,C11: 11. Taux de chômage (en %) - données cvs (9 / 10),,,1: Un
LU1:DF_B3019(1.0),C11: 11. Taux de chômage (en %) - données cvs (9 / 10),M: Mensuelle,2012-01,5.96866122167387,,,C11: 11. Taux de chômage (en %) - données cvs (9 / 10),,,1: Un
LU1:DF_B3019(1.0),C11: 11. Taux de chômage (en %) - données cvs (9 / 10),M: Mensuelle,2012-02,5.9897557770181,,,C11: 11. Taux de chômage (en %) - données cvs (9 / 10),,,1: Un
LU1:DF_B3019(1.0),C11: 11. Taux de chômage (en %) - données cvs (9 / 10),M: Mensuelle,2012-03,6.02454775536775,,,C11: 11. Taux de chômage (en %) - données cvs (9 / 10),,,1: Un
LU1:DF_B3019(1.0),C11: 11. Taux de chômage (en %) - données cvs (9 / 10),M: Mensuelle,2012-04,6.0442223313269,,,C11: 11. Taux de chômage (en %) - données cvs (9 / 10),,,1: Un
LU1:DF_B3019(1.0),C11: 11. Taux de chômage (en %) - données cvs (9 / 10),M: Mensuelle,2012-05,6.04281113652117,,,C11: 11. Taux de chômage (en %) - données cvs (9 / 10),,,1: Un
LU1:DF_B3019(1.0),C11: 11. Taux de chômage (en %) - données cvs (9 / 10),M: Mensuelle,2012-06,6.02284366923714,,,C11: 11. Taux de chômage (en %) - données cvs (9 / 10),,,1: Un
LU1:DF_B3019(1.0),C11: 11. Taux de chômage (en %) - données cvs (9 / 10),M: Mensuelle,2012-07,6.08729127731759,,,C11: 11. Taux de chômage (en %) - données cvs (9 / 10),,,1: Un
LU1:DF_B3019(1.0),C11: 11. Taux de chômage (en %) - données cvs (9 / 10),M: Mensuelle,2012-08,6.09497174788777,,,C11: 11. Taux de chômage (en %) - données cvs (9 / 10),,,1: Un
LU1:DF_B3019(1.0),C11: 11. Taux de chômage (en %) - données cvs (9 / 10),M: Mensuelle,2012-09,6.13534611905265,,,C11: 11. Taux de chômage (en %) - données cvs (9 / 10),,,1: Un
LU1:DF_B3019(1.0),C11: 11. Taux de chômage (en %) - données cvs (9 / 10),M: Mensuelle,2012-10,6.18362316059582,,,C11: 11. Taux de chômage (en %) - données cvs (9 / 10),,,1: Un
LU1:DF_B3019(1.0),C11: 11. Taux de chômage (en %) - données cvs (9 / 10),M: Mensuelle,2012-11,6.21777175997318,,,C11: 11. Taux de chômage (en %) - données cvs (9 / 10),,,1: Un
LU1:DF_B3019(1.0),C11: 11. Taux de chômage (en %) - données cvs (9 / 10),M: Mensuelle,2012-12,6.36364398623943,,,C11: 11. Taux de chômage (en %) - données cvs (9 / 10),,,1: Un
LU1:DF_B3019(1.0),C11: 11. Taux de chômage (en %) - données cvs (9 / 10),M: Mensuelle,2013-01,6.50287530742878,,,C11: 11. Taux de chômage (en %) - données cvs (9 / 10),,,1: Un
LU1:DF_B3019(1.0),C11: 11. Taux de chômage (en %) - données cvs (9 / 10),M: Mensuelle,2013-02,6.59296764899585,,,C11: 11. Taux de chômage (en %) - données cvs (9 / 10),,,1: Un
LU1:DF_B3019(1.0),C11: 11. Taux de chômage (en %) - données cvs (9 / 10),M: Mensuelle,2013-03,6.74518684185652,,,C11: 11. Taux de chômage (en %) - données cvs (9 / 10),,,1: Un
LU1:DF_B3019(1.0),C11: 11. Taux de chômage (en %) - données cvs (9 / 10),M: Mensuelle,2013-04,6.72818233179907,,,C11: 11. Taux de chômage (en %) - données cvs (9 / 10),,,1: Un
LU1:DF_B3019(1.0),C11: 11. Taux de chômage (en %) - données cvs (9 / 10),M: Mensuelle,2013-05,6.8550295351135,,,C11: 11. Taux de chômage (en %) - données cvs (9 / 10),,,1: Un
LU1:DF_B3019(1.0),C11: 11. Taux de chômage (en %) - données cvs (9 / 10),M: Mensuelle,2013-06,6.89522616312361,,,C11: 11. Taux de chômage (en %) - données cvs (9 / 10),,,1: Un
LU1:DF_B3019(1.0),C11: 11. Taux de chômage (en %) - données cvs (9 / 10),M: Mensuelle,2013-07,6.89672293875098,,,C11: 11. Taux de chômage (en %) - données cvs (9 / 10),,,1: Un
LU1:DF_B3019(1.0),C11: 11. Taux de chômage (en %) - données cvs (9 / 10),M: Mensuelle,2013-08,6.79666402616958,,,C11: 11. Taux de chômage (en %) - données cvs (9 / 10),,,1: Un
LU1:DF_B3019(1.0),C11: 11. Taux de chômage (en %) - données cvs (9 / 10),M: Mensuelle,2013-09,6.92150418110012,,,C11: 11. Taux de chômage (en %) - données cvs (9 / 10),,,1: Un
LU1:DF_B3019(1.0),C11: 11. Taux de chômage (en %) - données cvs (9 / 10),M: Mensuelle,2013-10,6.94748999994484,,,C11: 11. Taux de chômage (en %) - données cvs (9 / 10),,,1: Un
LU1:DF_B3019(1.0),C11: 11. Taux de chômage (en %) - données cvs (9 / 10),M: Mensuelle,2013-11,7.01086661337033,,,C11: 11. Taux de chômage (en %) - données cvs (9 / 10),,,1: Un
LU1:DF_B3019(1.0),C11: 11. Taux de chômage (en %) - données cvs (9 / 10),M: Mensuelle,2013-12,7.05493825338641,,,C11: 11. Taux de chômage (en %) - données cvs (9 / 10),,,1: Un
LU1:DF_B3019(1.0),C11: 11. Taux de chômage (en %) - données cvs (9 / 10),M: Mensuelle,2014-01,7.10791467384847,,,C11: 11. Taux de chômage (en %) - données cvs (9 / 10),,,1: Un
LU1:DF_B3019(1.0),C11: 11. Taux de chômage (en %) - données cvs (9 / 10),M: Mensuelle,2014-02,7.09336621814404,,,C11: 11. Taux de chômage (en %) - données cvs (9 / 10),,,1: Un
LU1:DF_B3019(1.0),C11: 11. Taux de chômage (en %) - données cvs (9 / 10),M: Mensuelle,2014-03,7.10291821764912,,,C11: 11. Taux de chômage (en %) - données cvs (9 / 10),,,1: Un
LU1:DF_B3019(1.0),C11: 11. Taux de chômage (en %) - données cvs (9 / 10),M: Mensuelle,2014-04,7.14131765378255,,,C11: 11. Taux de chômage (en %) - données cvs (9 / 10),,,1: Un
LU1:DF_B3019(1.0),C11: 11. Taux de chômage (en %) - données cvs (9 / 10),M: Mensuelle,2014-05,7.19978830795525,,,C11: 11. Taux de chômage (en %) - données cvs (9 / 10),,,1: Un
LU1:DF_B3019(1.0),C11: 11. Taux de chômage (en %) - données cvs (9 / 10),M: Mensuelle,2014-06,7.15278011654831,,,C11: 11. Taux de chômage (en %) - données cvs (9 / 10),,,1: Un
LU1:DF_B3019(1.0),C11: 11. Taux de chômage (en %) - données cvs (9 / 10),M: Mensuelle,2014-07,7.13743760430319,,,C11: 11. Taux de chômage (en %) - données cvs (9 / 10),,,1: Un
LU1:DF_B3019(1.0),C11: 11. Taux de chômage (en %) - données cvs (9 / 10),M: Mensuelle,2014-08,7.04594439728797,,,C11: 11. Taux de chômage (en %) - données cvs (9 / 10),,,1: Un
LU1:DF_B3019(1.0),C11: 11. Taux de chômage (en %) - données cvs (9 / 10),M: Mensuelle,2014-09,7.11774251116653,,,C11: 11. Taux de chômage (en %) - données cvs (9 / 10),,,1: Un
LU1:DF_B3019(1.0),C11: 11. Taux de chômage (en %) - données cvs (9 / 10),M: Mensuelle,2014-10,7.05111946853585,,,C11: 11. Taux de chômage (en %) - données cvs (9 / 10),,,1: Un
LU1:DF_B3019(1.0),C11: 11. Taux de chômage (en %) - données cvs (9 / 10),M: Mensuelle,2014-11,7.02255151705171,,,C11: 11. Taux de chômage (en %) - données cvs (9 / 10),,,1: Un
LU1:DF_B3019(1.0),C11: 11. Taux de chômage (en %) - données cvs (9 / 10),M: Mensuelle,2014-12,6.92783497894234,,,C11: 11. Taux de chômage (en %) - données cvs (9 / 10),,,1: Un
LU1:DF_B3019(1.0),C11: 11. Taux de chômage (en %) - données cvs (9 / 10),M: Mensuelle,2015-01,6.98850485198273,,,C11: 11. Taux de chômage (en %) - données cvs (9 / 10),,,1: Un
LU1:DF_B3019(1.0),C11: 11. Taux de chômage (en %) - données cvs (9 / 10),M: Mensuelle,2015-02,6.95265052051416,,,C11: 11. Taux de chômage (en %) - données cvs (9 / 10),,,1: Un
LU1:DF_B3019(1.0),C11: 11. Taux de chômage (en %) - données cvs (9 / 10),M: Mensuelle,2015-03,6.83715103778986,,,C11: 11. Taux de chômage (en %) - données cvs (9 / 10),,,1: Un
LU1:DF_B3019(1.0),C11: 11. Taux de chômage (en %) - données cvs (9 / 10),M: Mensuelle,2015-04,6.86824954731339,,,C11: 11. Taux de chômage (en %) - données cvs (9 / 10),,,1: Un
LU1:DF_B3019(1.0),C11: 11. Taux de chômage (en %) - données cvs (9 / 10),M: Mensuelle,2015-05,6.84590484706367,,,C11: 11. Taux de chômage (en %) - données cvs (9 / 10),,,1: Un
LU1:DF_B3019(1.0),C11: 11. Taux de chômage (en %) - données cvs (9 / 10),M: Mensuelle,2015-06,6.8105094234243,,,C11: 11. Taux de chômage (en %) - données cvs (9 / 10),,,1: Un
LU1:DF_B3019(1.0),C11: 11. Taux de chômage (en %) - données cvs (9 / 10),M: Mensuelle,2015-07,6.76983902631438,,,C11: 11. Taux de chômage (en %) - données cvs (9 / 10),,,1: Un
LU1:DF_B3019(1.0),C11: 11. Taux de chômage (en %) - données cvs (9 / 10),M: Mensuelle,2015-08,6.7419023932243,,,C11: 11. Taux de chômage (en %) - données cvs (9 / 10),,,1: Un
LU1:DF_B3019(1.0),C11: 11. Taux de chômage (en %) - données cvs (9 / 10),M: Mensuelle,2015-09,6.6254833476218,,,C11: 11. Taux de chômage (en %) - données cvs (9 / 10),,,1: Un
LU1:DF_B3019(1.0),C11: 11. Taux de chômage (en %) - données cvs (9 / 10),M: Mensuelle,2015-10,6.68942898078174,,,C11: 11. Taux de chômage (en %) - données cvs (9 / 10),,,1: Un
LU1:DF_B3019(1.0),C11: 11. Taux de chômage (en %) - données cvs (9 / 10),M: Mensuelle,2015-11,6.69689601205261,,,C11: 11. Taux de chômage (en %) - données cvs (9 / 10),,,1: Un
LU1:DF_B3019(1.0),C11: 11. Taux de chômage (en %) - données cvs (9 / 10),M: Mensuelle,2015-12,6.64010679551545,,,C11: 11. Taux de chômage (en %) - données cvs (9 / 10),,,1: Un
LU1:DF_B3019(1.0),C11: 11. Taux de chômage (en %) - données cvs (9 / 10),M: Mensuelle,2016-01,6.50613207969018,,,C11: 11. Taux de chômage (en %) - données cvs (9 / 10),,,1: Un
LU1:DF_B3019(1.0),C11: 11. Taux de chômage (en %) - données cvs (9 / 10),M: Mensuelle,2016-02,6.45341391812995,,,C11: 11. Taux de chômage (en %) - données cvs (9 / 10),,,1: Un
LU1:DF_B3019(1.0),C11: 11. Taux de chômage (en %) - données cvs (9 / 10),M: Mensuelle,2016-03,6.50770515522962,,,C11: 11. Taux de chômage (en %) - données cvs (9 / 10),,,1: Un
LU1:DF_B3019(1.0),C11: 11. Taux de chômage (en %) - données cvs (9 / 10),M: Mensuelle,2016-04,6.44322584588167,,,C11: 11. Taux de chômage (en %) - données cvs (9 / 10),,,1: Un
LU1:DF_B3019(1.0),C11: 11. Taux de chômage (en %) - données cvs (9 / 10),M: Mensuelle,2016-05,6.36444174886254,,,C11: 11. Taux de chômage (en %) - données cvs (9 / 10),,,1: Un
LU1:DF_B3019(1.0),C11: 11. Taux de chômage (en %) - données cvs (9 / 10),M: Mensuelle,2016-06,6.3267570802172,,,C11: 11. Taux de chômage (en %) - données cvs (9 / 10),,,1: Un
LU1:DF_B3019(1.0),C11: 11. Taux de chômage (en %) - données cvs (9 / 10),M: Mensuelle,2016-07,6.25897898190314,,,C11: 11. Taux de chômage (en %) - données cvs (9 / 10),,,1: Un
LU1:DF_B3019(1.0),C11: 11. Taux de chômage (en %) - données cvs (9 / 10),M: Mensuelle,2016-08,6.27185588232951,,,C11: 11. Taux de chômage (en %) - données cvs (9 / 10),,,1: Un
LU1:DF_B3019(1.0),C11: 11. Taux de chômage (en %) - données cvs (9 / 10),M: Mensuelle,2016-09,6.30004079357386,,,C11: 11. Taux de chômage (en %) - données cvs (9 / 10),,,1: Un
LU1:DF_B3019(1.0),C11: 11. Taux de chômage (en %) - données cvs (9 / 10),M: Mensuelle,2016-10,6.30463901359017,,,C11: 11. Taux de chômage (en %) - données cvs (9 / 10),,,1: Un
LU1:DF_B3019(1.0),C11: 11. Taux de chômage (en %) - données cvs (9 / 10),M: Mensuelle,2016-11,6.25427292415478,,,C11: 11. Taux de chômage (en %) - données cvs (9 / 10),,,1: Un
LU1:DF_B3019(1.0),C11: 11. Taux de chômage (en %) - données cvs (9 / 10),M: Mensuelle,2016-12,6.25536144726533,,,C11: 11. Taux de chômage (en %) - données cvs (9 / 10),,,1: Un
LU1:DF_B3019(1.0),C11: 11. Taux de chômage (en %) - données cvs (9 / 10),M: Mensuelle,2017-01,6.20353537566003,,,C11: 11. Taux de chômage (en %) - données cvs (9 / 10),,,1: Un
LU1:DF_B3019(1.0),C11: 11. Taux de chômage (en %) - données cvs (9 / 10),M: Mensuelle,2017-02,6.05841660579925,,,C11: 11. Taux de chômage (en %) - données cvs (9 / 10),,,1: Un
LU1:DF_B3019(1.0),C11: 11. Taux de chômage (en %) - données cvs (9 / 10),M: Mensuelle,2017-03,5.92938712778044,,,C11: 11. Taux de chômage (en %) - données cvs (9 / 10),,,1: Un
LU1:DF_B3019(1.0),C11: 11. Taux de chômage (en %) - données cvs (9 / 10),M: Mensuelle,2017-04,5.93421323942683,,,C11: 11. Taux de chômage (en %) - données cvs (9 / 10),,,1: Un
LU1:DF_B3019(1.0),C11: 11. Taux de chômage (en %) - données cvs (9 / 10),M: Mensuelle,2017-05,5.85899093079626,,,C11: 11. Taux de chômage (en %) - données cvs (9 / 10),,,1: Un
LU1:DF_B3019(1.0),C11: 11. Taux de chômage (en %) - données cvs (9 / 10),M: Mensuelle,2017-06,5.85271415378941,,,C11: 11. Taux de chômage (en %) - données cvs (9 / 10),,,1: Un
LU1:DF_B3019(1.0),C11: 11. Taux de chômage (en %) - données cvs (9 / 10),M: Mensuelle,2017-07,5.95709786704705,,,C11: 11. Taux de chômage (en %) - données cvs (9 / 10),,,1: Un
LU1:DF_B3019(1.0),C11: 11. Taux de chômage (en %) - données cvs (9 / 10),M: Mensuelle,2017-08,5.89125756858549,,,C11: 11. Taux de chômage (en %) - données cvs (9 / 10),,,1: Un
LU1:DF_B3019(1.0),C11: 11. Taux de chômage (en %) - données cvs (9 / 10),M: Mensuelle,2017-09,5.91598779247731,,,C11: 11. Taux de chômage (en %) - données cvs (9 / 10),,,1: Un
LU1:DF_B3019(1.0),C11: 11. Taux de chômage (en %) - données cvs (9 / 10),M: Mensuelle,2017-10,5.81475419988658,,,C11: 11. Taux de chômage (en %) - données cvs (9 / 10),,,1: Un
LU1:DF_B3019(1.0),C11: 11. Taux de chômage (en %) - données cvs (9 / 10),M: Mensuelle,2017-11,5.78762496353637,,,C11: 11. Taux de chômage (en %) - données cvs (9 / 10),,,1: Un
LU1:DF_B3019(1.0),C11: 11. Taux de chômage (en %) - données cvs (9 / 10),M: Mensuelle,2017-12,5.82795056012454,,,C11: 11. Taux de chômage (en %) - données cvs (9 / 10),,,1: Un
LU1:DF_B3019(1.0),C11: 11. Taux de chômage (en %) - données cvs (9 / 10),M: Mensuelle,2018-01,5.69396449912728,,,C11: 11. Taux de chômage (en %) - données cvs (9 / 10),,,1: Un
LU1:DF_B3019(1.0),C11: 11. Taux de chômage (en %) - données cvs (9 / 10),M: Mensuelle,2018-02,5.7349672902987,,,C11: 11. Taux de chômage (en %) - données cvs (9 / 10),,,1: Un
LU1:DF_B3019(1.0),C11: 11. Taux de chômage (en %) - données cvs (9 / 10),M: Mensuelle,2018-03,5.65917536541254,,,C11: 11. Taux de chômage (en %) - données cvs (9 / 10),,,1: Un
LU1:DF_B3019(1.0),C11: 11. Taux de chômage (en %) - données cvs (9 / 10),M: Mensuelle,2018-04,5.52389977504722,,,C11: 11. Taux de chômage (en %) - données cvs (9 / 10),,,1: Un
LU1:DF_B3019(1.0),C11: 11. Taux de chômage (en %) - données cvs (9 / 10),M: Mensuelle,2018-05,5.48319833550259,,,C11: 11. Taux de chômage (en %) - données cvs (9 / 10),,,1: Un
LU1:DF_B3019(1.0),C11: 11. Taux de chômage (en %) - données cvs (9 / 10),M: Mensuelle,2018-06,5.45796726541321,,,C11: 11. Taux de chômage (en %) - données cvs (9 / 10),,,1: Un
LU1:DF_B3019(1.0),C11: 11. Taux de chômage (en %) - données cvs (9 / 10),M: Mensuelle,2018-07,5.4614382030549,,,C11: 11. Taux de chômage (en %) - données cvs (9 / 10),,,1: Un
LU1:DF_B3019(1.0),C11: 11. Taux de chômage (en %) - données cvs (9 / 10),M: Mensuelle,2018-08,5.45930129253341,,,C11: 11. Taux de chômage (en %) - données cvs (9 / 10),,,1: Un
LU1:DF_B3019(1.0),C11: 11. Taux de chômage (en %) - données cvs (9 / 10),M: Mensuelle,2018-09,5.36710310316815,,,C11: 11. Taux de chômage (en %) - données cvs (9 / 10),,,1: Un
LU1:DF_B3019(1.0),C11: 11. Taux de chômage (en %) - données cvs (9 / 10),M: Mensuelle,2018-10,5.36854556544757,,,C11: 11. Taux de chômage (en %) - données cvs (9 / 10),,,1: Un
LU1:DF_B3019(1.0),C11: 11. Taux de chômage (en %) - données cvs (9 / 10),M: Mensuelle,2018-11,5.20723278110768,,,C11: 11. Taux de chômage (en %) - données cvs (9 / 10),,,1: Un
LU1:DF_B3019(1.0),C11: 11. Taux de chômage (en %) - données cvs (9 / 10),M: Mensuelle,2018-12,5.04941624322874,,,C11: 11. Taux de chômage (en %) - données cvs (9 / 10),,,1: Un
LU1:DF_B3019(1.0),C11: 11. Taux de chômage (en %) - données cvs (9 / 10),M: Mensuelle,2019-01,5.1304956145566,,,C11: 11. Taux de chômage (en %) - données cvs (9 / 10),,,1: Un
LU1:DF_B3019(1.0),C11: 11. Taux de chômage (en %) - données cvs (9 / 10),M: Mensuelle,2019-02,5.23036584007995,,,C11: 11. Taux de chômage (en %) - données cvs (9 / 10),,,1: Un
LU1:DF_B3019(1.0),C11: 11. Taux de chômage (en %) - données cvs (9 / 10),M: Mensuelle,2019-03,5.38171111501126,,,C11: 11. Taux de chômage (en %) - données cvs (9 / 10),,,1: Un
LU1:DF_B3019(1.0),C11: 11. Taux de chômage (en %) - données cvs (9 / 10),M: Mensuelle,2019-04,5.43556767750262,,,C11: 11. Taux de chômage (en %) - données cvs (9 / 10),,,1: Un
LU1:DF_B3019(1.0),C11: 11. Taux de chômage (en %) - données cvs (9 / 10),M: Mensuelle,2019-05,5.43159833455063,,,C11: 11. Taux de chômage (en %) - données cvs (9 / 10),,,1: Un
LU1:DF_B3019(1.0),C11: 11. Taux de chômage (en %) - données cvs (9 / 10),M: Mensuelle,2019-06,5.49639271241704,,,C11: 11. Taux de chômage (en %) - données cvs (9 / 10),,,1: Un
LU1:DF_B3019(1.0),C11: 11. Taux de chômage (en %) - données cvs (9 / 10),M: Mensuelle,2019-07,5.44580636161464,,,C11: 11. Taux de chômage (en %) - données cvs (9 / 10),,,1: Un
LU1:DF_B3019(1.0),C11: 11. Taux de chômage (en %) - données cvs (9 / 10),M: Mensuelle,2019-08,5.46340004720061,,,C11: 11. Taux de chômage (en %) - données cvs (9 / 10),,,1: Un
LU1:DF_B3019(1.0),C11: 11. Taux de chômage (en %) - données cvs (9 / 10),M: Mensuelle,2019-09,5.29125907974967,,,C11: 11. Taux de chômage (en %) - données cvs (9 / 10),,,1: Un
LU1:DF_B3019(1.0),C11: 11. Taux de chômage (en %) - données cvs (9 / 10),M: Mensuelle,2019-10,5.34110247587706,,,C11: 11. Taux de chômage (en %) - données cvs (9 / 10),,,1: Un
LU1:DF_B3019(1.0),C11: 11. Taux de chômage (en %) - données cvs (9 / 10),M: Mensuelle,2019-11,5.40020870895007,,,C11: 11. Taux de chômage (en %) - données cvs (9 / 10),,,1: Un
LU1:DF_B3019(1.0),C11: 11. Taux de chômage (en %) - données cvs (9 / 10),M: Mensuelle,2019-12,5.36372143191162,,,C11: 11. Taux de chômage (en %) - données cvs (9 / 10),,,1: Un
LU1:DF_B3019(1.0),C11: 11. Taux de chômage (en %) - données cvs (9 / 10),M: Mensuelle,2020-01,5.4097904318914,,,C11: 11. Taux de chômage (en %) - données cvs (9 / 10),,,1: Un
LU1:DF_B3019(1.0),C11: 11. Taux de chômage (en %) - données cvs (9 / 10),M: Mensuelle,2020-02,5.45629086312962,,,C11: 11. Taux de chômage (en %) - données cvs (9 / 10),,,1: Un
LU1:DF_B3019(1.0),C11: 11. Taux de chômage (en %) - données cvs (9 / 10),M: Mensuelle,2020-03,6.17827391232707,,,C11: 11. Taux de chômage (en %) - données cvs (9 / 10),,,1: Un
LU1:DF_B3019(1.0),C11: 11. Taux de chômage (en %) - données cvs (9 / 10),M: Mensuelle,2020-04,6.92791259089041,,,C11: 11. Taux de chômage (en %) - données cvs (9 / 10),,,1: Un
LU1:DF_B3019(1.0),C11: 11. Taux de chômage (en %) - données cvs (9 / 10),M: Mensuelle,2020-05,7.01141391908033,,,C11: 11. Taux de chômage (en %) - données cvs (9 / 10),,,1: Un
LU1:DF_B3019(1.0),C11: 11. Taux de chômage (en %) - données cvs (9 / 10),M: Mensuelle,2020-06,7.05532903783274,,,C11: 11. Taux de chômage (en %) - données cvs (9 / 10),,,1: Un
LU1:DF_B3019(1.0),C11: 11. Taux de chômage (en %) - données cvs (9 / 10),M: Mensuelle,2020-07,6.67319559159571,,,C11: 11. Taux de chômage (en %) - données cvs (9 / 10),,,1: Un
LU1:DF_B3019(1.0),C11: 11. Taux de chômage (en %) - données cvs (9 / 10),M: Mensuelle,2020-08,6.4264533854281,,,C11: 11. Taux de chômage (en %) - données cvs (9 / 10),,,1: Un
LU1:DF_B3019(1.0),C11: 11. Taux de chômage (en %) - données cvs (9 / 10),M: Mensuelle,2020-09,6.3123539961755,,,C11: 11. Taux de chômage (en %) - données cvs (9 / 10),,,1: Un
LU1:DF_B3019(1.0),C11: 11. Taux de chômage (en %) - données cvs (9 / 10),M: Mensuelle,2020-10,6.25496100364651,,,C11: 11. Taux de chômage (en %) - données cvs (9 / 10),,,1: Un
LU1:DF_B3019(1.0),C11: 11. Taux de chômage (en %) - données cvs (9 / 10),M: Mensuelle,2020-11,6.27866912118435,,,C11: 11. Taux de chômage (en %) - données cvs (9 / 10),,,1: Un
LU1:DF_B3019(1.0),C11: 11. Taux de chômage (en %) - données cvs (9 / 10),M: Mensuelle,2020-12,6.3465276496035,,,C11: 11. Taux de chômage (en %) - données cvs (9 / 10),,,1: Un
LU1:DF_B3019(1.0),C11: 11. Taux de chômage (en %) - données cvs (9 / 10),M: Mensuelle,2021-01,6.40635231269319,,,C11: 11. Taux de chômage (en %) - données cvs (9 / 10),,,1: Un
LU1:DF_B3019(1.0),C11: 11. Taux de chômage (en %) - données cvs (9 / 10),M: Mensuelle,2021-02,6.28044567199043,,,C11: 11. Taux de chômage (en %) - données cvs (9 / 10),,,1: Un
LU1:DF_B3019(1.0),C11: 11. Taux de chômage (en %) - données cvs (9 / 10),M: Mensuelle,2021-03,6.19615422075495,,,C11: 11. Taux de chômage (en %) - données cvs (9 / 10),,,1: Un
LU1:DF_B3019(1.0),C11: 11. Taux de chômage (en %) - données cvs (9 / 10),M: Mensuelle,2021-04,6.1210486824933,,,C11: 11. Taux de chômage (en %) - données cvs (9 / 10),,,1: Un
LU1:DF_B3019(1.0),C11: 11. Taux de chômage (en %) - données cvs (9 / 10),M: Mensuelle,2021-05,5.95429176528983,,,C11: 11. Taux de chômage (en %) - données cvs (9 / 10),,,1: Un
LU1:DF_B3019(1.0),C11: 11. Taux de chômage (en %) - données cvs (9 / 10),M: Mensuelle,2021-06,5.75839428131372,,,C11: 11. Taux de chômage (en %) - données cvs (9 / 10),,,1: Un
LU1:DF_B3019(1.0),C11: 11. Taux de chômage (en %) - données cvs (9 / 10),M: Mensuelle,2021-07,5.65243742524901,,,C11: 11. Taux de chômage (en %) - données cvs (9 / 10),,,1: Un
LU1:DF_B3019(1.0),C11: 11. Taux de chômage (en %) - données cvs (9 / 10),M: Mensuelle,2021-08,5.54719213176754,,,C11: 11. Taux de chômage (en %) - données cvs (9 / 10),,,1: Un
LU1:DF_B3019(1.0),C11: 11. Taux de chômage (en %) - données cvs (9 / 10),M: Mensuelle,2021-09,5.42665962584121,,,C11: 11. Taux de chômage (en %) - données cvs (9 / 10),,,1: Un
LU1:DF_B3019(1.0),C11: 11. Taux de chômage (en %) - données cvs (9 / 10),M: Mensuelle,2021-10,5.27855510108015,,,C11: 11. Taux de chômage (en %) - données cvs (9 / 10),,,1: Un
LU1:DF_B3019(1.0),C11: 11. Taux de chômage (en %) - données cvs (9 / 10),M: Mensuelle,2021-11,5.17821415044114,,,C11: 11. Taux de chômage (en %) - données cvs (9 / 10),,,1: Un
LU1:DF_B3019(1.0),C11: 11. Taux de chômage (en %) - données cvs (9 / 10),M: Mensuelle,2021-12,5.17223351394246,,,C11: 11. Taux de chômage (en %) - données cvs (9 / 10),,,1: Un
LU1:DF_B3019(1.0),C11: 11. Taux de chômage (en %) - données cvs (9 / 10),M: Mensuelle,2022-01,4.90679168637776,,,C11: 11. Taux de chômage (en %) - données cvs (9 / 10),,,1: Un
LU1:DF_B3019(1.0),C11: 11. Taux de chômage (en %) - données cvs (9 / 10),M: Mensuelle,2022-02,4.88826602408564,,,C11: 11. Taux de chômage (en %) - données cvs (9 / 10),,,1: Un
LU1:DF_B3019(1.0),C11: 11. Taux de chômage (en %) - données cvs (9 / 10),M: Mensuelle,2022-03,4.77395683267471,,,C11: 11. Taux de chômage (en %) - données cvs (9 / 10),,,1: Un
LU1:DF_B3019(1.0),C11: 11. Taux de chômage (en %) - données cvs (9 / 10),M: Mensuelle,2022-04,4.76029375622574,,,C11: 11. Taux de chômage (en %) - données cvs (9 / 10),,,1: Un
LU1:DF_B3019(1.0),C11: 11. Taux de chômage (en %) - données cvs (9 / 10),M: Mensuelle,2022-05,4.7448217215998,,,C11: 11. Taux de chômage (en %) - données cvs (9 / 10),,,1: Un
LU1:DF_B3019(1.0),C11: 11. Taux de chômage (en %) - données cvs (9 / 10),M: Mensuelle,2022-06,4.73002095871481,,,C11: 11. Taux de chômage (en %) - données cvs (9 / 10),,,1: Un
LU1:DF_B3019(1.0),C11: 11. Taux de chômage (en %) - données cvs (9 / 10),M: Mensuelle,2022-07,4.73689506636989,,,C11: 11. Taux de chômage (en %) - données cvs (9 / 10),,,1: Un
LU1:DF_B3019(1.0),C11: 11. Taux de chômage (en %) - données cvs (9 / 10),M: Mensuelle,2022-08,4.79654678387385,,,C11: 11. Taux de chômage (en %) - données cvs (9 / 10),,,1: Un
LU1:DF_B3019(1.0),C11: 11. Taux de chômage (en %) - données cvs (9 / 10),M: Mensuelle,2022-09,4.80381793929016,,,C11: 11. Taux de chômage (en %) - données cvs (9 / 10),,,1: Un
LU1:DF_B3019(1.0),C11: 11. Taux de chômage (en %) - données cvs (9 / 10),M: Mensuelle,2022-10,4.92338922713422,,,C11: 11. Taux de chômage (en %) - données cvs (9 / 10),,,1: Un
LU1:DF_B3019(1.0),C11: 11. Taux de chômage (en %) - données cvs (9 / 10),M: Mensuelle,2022-11,4.86143166545205,,,C11: 11. Taux de chômage (en %) - données cvs (9 / 10),,,1: Un
LU1:DF_B3019(1.0),C11: 11. Taux de chômage (en %) - données cvs (9 / 10),M: Mensuelle,2022-12,4.87313686841581,,,C11: 11. Taux de chômage (en %) - données cvs (9 / 10),,,1: Un
LU1:DF_B3019(1.0),C11: 11. Taux de chômage (en %) - données cvs (9 / 10),M: Mensuelle,2023-01,4.91071299476756,,,C11: 11. Taux de chômage (en %) - données cvs (9 / 10),,,1: Un
LU1:DF_B3019(1.0),C11: 11. Taux de chômage (en %) - données cvs (9 / 10),M: Mensuelle,2023-02,4.8746805554206,,,C11: 11. Taux de chômage (en %) - données cvs (9 / 10),,,1: Un
LU1:DF_B3019(1.0),C11: 11. Taux de chômage (en %) - données cvs (9 / 10),M: Mensuelle,2023-03,4.91849634300044,,,C11: 11. Taux de chômage (en %) - données cvs (9 / 10),,,1: Un
LU1:DF_B3019(1.0),C11: 11. Taux de chômage (en %) - données cvs (9 / 10),M: Mensuelle,2023-04,4.99928895848712,,,C11: 11. Taux de chômage (en %) - données cvs (9 / 10),,,1: Un
LU1:DF_B3019(1.0),C11: 11. Taux de chômage (en %) - données cvs (9 / 10),M: Mensuelle,2023-05,5.05316471319463,,,C11: 11. Taux de chômage (en %) - données cvs (9 / 10),,,1: Un
LU1:DF_B3019(1.0),C11: 11. Taux de chômage (en %) - données cvs (9 / 10),M: Mensuelle,2023-06,5.19211776412615,,,C11: 11. Taux de chômage (en %) - données cvs (9 / 10),,,1: Un
LU1:DF_B3019(1.0),C11: 11. Taux de chômage (en %) - données cvs (9 / 10),M: Mensuelle,2023-07,5.24790637390111,,,C11: 11. Taux de chômage (en %) - données cvs (9 / 10),,,1: Un
LU1:DF_B3019(1.0),C11: 11. Taux de chômage (en %) - données cvs (9 / 10),M: Mensuelle,2023-08,5.32632764190335,,,C11: 11. Taux de chômage (en %) - données cvs (9 / 10),,,1: Un
LU1:DF_B3019(1.0),C11: 11. Taux de chômage (en %) - données cvs (9 / 10),M: Mensuelle,2023-09,5.49307336644747,,,C11: 11. Taux de chômage (en %) - données cvs (9 / 10),,,1: Un
LU1:DF_B3019(1.0),C11: 11. Taux de chômage (en %) - données cvs (9 / 10),M: Mensuelle,2023-10,5.53670815992833,,,C11: 11. Taux de chômage (en %) - données cvs (9 / 10),,,1: Un
LU1:DF_B3019(1.0),C11: 11. Taux de chômage (en %) - données cvs (9 / 10),M: Mensuelle,2023-11,5.66031452388556,,,C11: 11. Taux de chômage (en %) - données cvs (9 / 10),,,1: Un
LU1:DF_B3019(1.0),C11: 11. Taux de chômage (en %) - données cvs (9 / 10),M: Mensuelle,2023-12,5.51640866439689,,,C11: 11. Taux de chômage (en %) - données cvs (9 / 10),,,1: Un
LU1:DF_B3019(1.0),C11: 11. Taux de chômage (en %) - données cvs (9 / 10),M: Mensuelle,2024-01,5.56740697204848,,,C11: 11. Taux de chômage (en %) - données cvs (9 / 10),,,1: Un
LU1:DF_B3019(1.0),C11: 11. Taux de chômage (en %) - données cvs (9 / 10),M: Mensuelle,2024-02,5.58073398631891,,,C11: 11. Taux de chômage (en %) - données cvs (9 / 10),,,1: Un
LU1:DF_B3019(1.0),C11: 11. Taux de chômage (en %) - données cvs (9 / 10),M: Mensuelle,2024-03,5.62409815308376,,,C11: 11. Taux de chômage (en %) - données cvs (9 / 10),,,1: Un
LU1:DF_B3019(1.0),C11: 11. Taux de chômage (en %) - données cvs (9 / 10),M: Mensuelle,2024-04,5.6238574780851,,,C11: 11. Taux de chômage (en %) - données cvs (9 / 10),,,1: Un
